0.02635431918008785
0.13832199546485255
0.04356243949661183
0.05896226415094339
0.1534653465346534
0.10507246376811596
0.10507246376811596
0.03107569721115539
0.13832199546485255
0.06288532675709001
0.19393939393939402
0.05206073752711497
0.09677419354838711
0.13832199546485255
0.17166212534059946
0.13832199546485255
0.13832199546485255
0.08945686900958466
0.09677419354838711
0.17166212534059946
0.08295625942684764
0.13832199546485255
0.1534653465346534
0.0411214953271028
0.10507246376811596
0.05896226415094339
0.02635431918008785
0.06718346253229975
0.05206073752711497
0.05536723163841807
0.1534653465346534
0.06288532675709001
0.07714285714285715
0.1534653465346534
0.06718346253229975
0.06288532675709001
0.046184738955823305
0.04356243949661183
0.05536723163841807
0.06288532675709001
0.02941176470588235
0.07714285714285715
0.22184300341296923
0.05896226415094339
0.05896226415094339
0.08945686900958466
0.05896226415094339
0.08295625942684764
0.038843721770551044
0.08945686900958466
0.08945686900958466
0.06718346253229975
0.06288532675709001
0.04356243949661183
0.05536723163841807
0.12552301255230125
0.07714285714285715
0.12552301255230125
0.37362637362637346
0.10507246376811596
0.3059360730593605
0.09677419354838711
0.11456310679611648
0.05536723163841807
0.02941176470588235
0.13832199546485255
0.09677419354838711
0.04900938477580815
0.11456310679611648
0.19393939393939402
0.05536723163841807
0.08295625942684764
0.19393939393939402
0.08945686900958466
0.06718346253229975
0.05206073752711497
0.08295625942684764
0.04900938477580815
0.06718346253229975
0.19393939393939402
0.1534653465346534
0.09677419354838711
0.02784048156508653
0.648148148148149
0.06288532675709001
0.04900938477580815
0.05536723163841807
0.08945686900958466
0.08295625942684764
0.11456310679611648
0.06288532675709001
0.11456310679611648
0.3059360730593605
0.05896226415094339
0.06288532675709001
0.038843721770551044
0.046184738955823305
0.08295625942684764
0.03107569721115539
0.06718346253229975
0.07191316146540026
0.05536723163841807
0.10507246376811596
0.09677419354838711
0.13832199546485255
0.046184738955823305
0.06288532675709001
0.3059360730593605
0.06288532675709001
0.07714285714285715
0.05896226415094339
0.038843721770551044
0.06718346253229975
0.09677419354838711
0.07191316146540026
0.06718346253229975
0.17166212534059946
0.034716342082980536
0.09677419354838711
0.08945686900958466
0.07714285714285715
0.09677419354838711
0.06288532675709001
0.09677419354838711
0.07191316146540026
0.03284072249589492
0.11456310679611648
0.04356243949661183
0.05536723163841807
0.10507246376811596
0.07191316146540026
0.13832199546485255
0.05536723163841807
0.05896226415094339
0.06288532675709001
0.07714285714285715
0.08945686900958466
0.3059360730593605
0.11456310679611648
0.08295625942684764
0.046184738955823305
0.06288532675709001
0.11456310679611648
0.09677419354838711
0.08945686900958466
0.04356243949661183
0.08945686900958466
0.04356243949661183
0.1534653465346534
0.08945686900958466
0.07714285714285715
0.12552301255230125
0.37362637362637346
0.08945686900958466
0.07714285714285715
0.10507246376811596
0.13832199546485255
0.09677419354838711
0.08295625942684764
0.08945686900958466
0.1534653465346534
0.07191316146540026
0.06288532675709001
0.06718346253229975
0.03671328671328671
0.11456310679611648
0.08295625942684764
0.06718346253229975
0.07191316146540026
0.17166212534059946
0.03107569721115539
0.08295625942684764
0.03107569721115539
0.07191316146540026
0.12552301255230125
0.07191316146540026
0.10507246376811596
0.07191316146540026
0.22184300341296923
0.05536723163841807
0.1534653465346534
0.07714285714285715
0.04900938477580815
0.07714285714285715
0.09677419354838711
0.13832199546485255
0.05896226415094339
0.04900938477580815
0.11456310679611648
0.06288532675709001
0.06288532675709001
0.648148148148149
0.046184738955823305
0.06288532675709001
0.06288532675709001
0.02941176470588235
0.03284072249589492
0.10507246376811596
0.046184738955823305
0.04356243949661183
0.06718346253229975
0.1534653465346534
0.12552301255230125
0.09677419354838711
0.07191316146540026
0.05536723163841807
0.0411214953271028
0.13832199546485255
0.09677419354838711
0.13832199546485255
0.07191316146540026
0.08945686900958466
0.11456310679611648
0.06288532675709001
0.04900938477580815
0.10507246376811596
0.05536723163841807
0.1534653465346534
0.10507246376811596
0.25781250000000006
0.07714285714285715
0.04900938477580815
0.05206073752711497
0.08295625942684764
0.05536723163841807
0.05536723163841807
0.10507246376811596
0.08945686900958466
0.07714285714285715
0.07191316146540026
0.22184300341296923
0.046184738955823305
0.07191316146540026
0.04900938477580815
0.08295625942684764
0.0411214953271028
0.19393939393939402
0.12552301255230125
0.09677419354838711
0.07191316146540026
0.05206073752711497
0.06718346253229975
0.05206073752711497
0.05536723163841807
0.034716342082980536
0.02635431918008785
0.06718346253229975
0.07191316146540026
0.06718346253229975
0.06718346253229975
0.046184738955823305
0.19393939393939402
0.08295625942684764
0.10507246376811596
0.05206073752711497
0.06288532675709001
0.034716342082980536
0.10507246376811596
0.12552301255230125
0.08295625942684764
0.04356243949661183
0.046184738955823305
0.08295625942684764
0.024946543121881687
0.09677419354838711
0.04900938477580815
0.06718346253229975
0.13832199546485255
0.05536723163841807
0.08295625942684764
0.19393939393939402
0.07714285714285715
0.1534653465346534
0.12552301255230125
0.12552301255230125
0.09677419354838711
0.016847172081829124
0.06718346253229975
0.11456310679611648
0.05536723163841807
0.08295625942684764
0.038843721770551044
0.03671328671328671
0.10507246376811596
0.12552301255230125
0.17166212534059946
0.0411214953271028
0.08945686900958466
0.11456310679611648
0.11456310679611648
0.08945686900958466
0.06718346253229975
0.13832199546485255
0.12552301255230125
0.07191316146540026
0.05206073752711497
0.10507246376811596
0.09677419354838711
0.10507246376811596
0.06718346253229975
0.1534653465346534
0.09677419354838711
0.07714285714285715
0.08945686900958466
0.12552301255230125
0.06718346253229975
0.02941176470588235
0.09677419354838711
0.07191316146540026
0.17166212534059946
0.09677419354838711
0.02784048156508653
0.02635431918008785
0.07714285714285715
0.08945686900958466
0.05896226415094339
0.06718346253229975
0.07714285714285715
0.08945686900958466
0.06288532675709001
0.06718346253229975
0.13832199546485255
0.22184300341296923
0.038843721770551044
0.13832199546485255
0.3059360730593605
0.07191316146540026
0.05536723163841807
0.06718346253229975
0.0411214953271028
0.13832199546485255
0.05896226415094339
0.06718346253229975
0.03671328671328671
0.07714285714285715
0.05896226415094339
0.08945686900958466
0.06288532675709001
0.07191316146540026
0.1534653465346534
0.05896226415094339
0.19393939393939402
0.07191316146540026
0.06718346253229975
0.07191316146540026
0.09677419354838711
0.038843721770551044
0.04900938477580815
0.08945686900958466
0.04900938477580815
0.04356243949661183
0.04900938477580815
0.07191316146540026
0.07714285714285715
0.02784048156508653
0.05896226415094339
0.08295625942684764
0.11456310679611648
0.09677419354838711
0.06288532675709001
0.08945686900958466
0.06718346253229975
0.17166212534059946
0.024946543121881687
0.04900938477580815
0.06718346253229975
0.05206073752711497
0.046184738955823305
0.04900938477580815
0.08295625942684764
0.05896226415094339
0.07714285714285715
0.05896226415094339
0.06288532675709001
0.08945686900958466
0.07714285714285715
0.19393939393939402
0.07714285714285715
0.10507246376811596
0.17166212534059946
0.07714285714285715
0.08945686900958466
0.06718346253229975
0.08295625942684764
0.06718346253229975
0.08945686900958466
0.10507246376811596
0.08295625942684764
0.1534653465346534
0.22184300341296923
0.12552301255230125
0.05896226415094339
0.04900938477580815
0.12552301255230125
0.04900938477580815
0.0411214953271028
0.11456310679611648
0.05206073752711497
0.19393939393939402
0.10507246376811596
0.06718346253229975
0.17166212534059946
0.13832199546485255
0.07191316146540026
0.10507246376811596
0.05536723163841807
0.08945686900958466
0.04900938477580815
0.09677419354838711
0.10507246376811596
0.17166212534059946
0.1534653465346534
0.13832199546485255
0.1534653465346534
0.021136063408190228
0.08945686900958466
0.12552301255230125
0.0411214953271028
0.03671328671328671
0.046184738955823305
0.10507246376811596
0.09677419354838711
0.04900938477580815
0.19393939393939402
0.034716342082980536
0.08295625942684764
0.06288532675709001
0.05536723163841807
0.10507246376811596
0.08945686900958466
0.06288532675709001
0.13832199546485255
0.09677419354838711
0.1534653465346534
0.12552301255230125
0.13832199546485255
0.04356243949661183
0.05896226415094339
0.10507246376811596
0.08945686900958466
0.05896226415094339
0.17166212534059946
0.046184738955823305
0.12552301255230125
0.04900938477580815
0.04900938477580815
0.09677419354838711
0.07191316146540026
0.05536723163841807
0.05896226415094339
0.08295625942684764
0.13832199546485255
0.08295625942684764
0.07714285714285715
0.1534653465346534
0.03671328671328671
0.05536723163841807
0.07191316146540026
0.03671328671328671
0.1534653465346534
0.06718346253229975
0.06288532675709001
0.10507246376811596
0.046184738955823305
0.07714285714285715
0.034716342082980536
0.09677419354838711
0.08295625942684764
0.046184738955823305
0.08945686900958466
0.3059360730593605
0.07714285714285715
0.17166212534059946
0.10507246376811596
0.038843721770551044
0.046184738955823305
0.046184738955823305
0.06288532675709001
0.07191316146540026
0.04356243949661183
0.06288532675709001
0.05896226415094339
0.07191316146540026
0.08945686900958466
0.10507246376811596
0.07714285714285715
0.4758620689655174
0.06718346253229975
0.06288532675709001
0.12552301255230125
0.12552301255230125
0.13832199546485255
0.07191316146540026
0.03284072249589492
0.038843721770551044
0.03284072249589492
0.038843721770551044
0.04356243949661183
0.05896226415094339
0.05536723163841807
0.07714285714285715
0.046184738955823305
0.06718346253229975
0.09677419354838711
0.37362637362637346
0.07714285714285715
0.06718346253229975
0.034716342082980536
0.09677419354838711
0.11456310679611648
0.04900938477580815
0.05536723163841807
0.11456310679611648
0.08295625942684764
0.13832199546485255
0.10507246376811596
0.11456310679611648
0.1534653465346534
0.09677419354838711
0.22184300341296923
0.07714285714285715
0.05206073752711497
0.08295625942684764
0.07714285714285715
0.07714285714285715
0.10507246376811596
0.05206073752711497
0.08295625942684764
0.19393939393939402
0.04900938477580815
0.11456310679611648
0.05536723163841807
0.10507246376811596
0.19393939393939402
0.06288532675709001
0.12552301255230125
0.1534653465346534
0.06288532675709001
0.06288532675709001
0.06288532675709001
0.0411214953271028
0.12552301255230125
0.11456310679611648
0.1534653465346534
0.06718346253229975
0.17166212534059946
0.046184738955823305
0.06718346253229975
0.10507246376811596
0.19393939393939402
0.06288532675709001
0.04900938477580815
0.05206073752711497
0.13832199546485255
0.25781250000000006
0.13832199546485255
0.12552301255230125
0.22184300341296923
0.07191316146540026
0.09677419354838711
0.13832199546485255
0.05206073752711497
0.09677419354838711
0.05536723163841807
0.06288532675709001
0.08945686900958466
0.11456310679611648
0.12552301255230125
0.11456310679611648
0.07714285714285715
0.05206073752711497
0.06288532675709001
0.038843721770551044
0.12552301255230125
0.05536723163841807
0.10507246376811596
0.038843721770551044
0.09677419354838711
0.19393939393939402
0.08945686900958466
0.08295625942684764
0.07714285714285715
0.06718346253229975
0.12552301255230125
0.08295625942684764
0.12552301255230125
0.046184738955823305
0.046184738955823305
0.22184300341296923
0.19393939393939402
0.17166212534059946
0.08945686900958466
0.05896226415094339
0.05896226415094339
0.05896226415094339
0.05536723163841807
0.22184300341296923
0.05896226415094339
0.046184738955823305
0.04900938477580815
0.08295625942684764
0.03107569721115539
0.22184300341296923
0.06718346253229975
0.07714285714285715
0.12552301255230125
0.09677419354838711
0.05896226415094339
0.10507246376811596
0.046184738955823305
0.11456310679611648
0.06718346253229975
0.13832199546485255
0.09677419354838711
0.10507246376811596
0.08945686900958466
0.06288532675709001
0.12552301255230125
0.04900938477580815
0.08295625942684764
0.06718346253229975
0.05896226415094339
0.06288532675709001
0.07714285714285715
0.0411214953271028
0.05896226415094339
0.10507246376811596
0.06288532675709001
0.08295625942684764
0.05206073752711497
0.13832199546485255
0.05536723163841807
0.08945686900958466
0.11456310679611648
0.04356243949661183
0.07191316146540026
0.22184300341296923
0.05206073752711497
0.08295625942684764
0.10507246376811596
0.13832199546485255
0.08945686900958466
0.09677419354838711
0.06288532675709001
0.12552301255230125
0.06288532675709001
0.07714285714285715
0.038843721770551044
0.05896226415094339
0.19393939393939402
0.08945686900958466
0.10507246376811596
0.05896226415094339
0.07191316146540026
0.08945686900958466
0.12552301255230125
0.07191316146540026
0.22184300341296923
0.10507246376811596
0.038843721770551044
0.08295625942684764
0.07714285714285715
0.19393939393939402
0.13832199546485255
0.06288532675709001
0.17166212534059946
0.05896226415094339
0.06288532675709001
0.05206073752711497
0.0411214953271028
0.06288532675709001
0.04356243949661183
0.08945686900958466
0.07191316146540026
0.13832199546485255
0.05896226415094339
0.10507246376811596
0.17166212534059946
0.05206073752711497
0.09677419354838711
0.04900938477580815
0.06288532675709001
0.10507246376811596
0.08295625942684764
0.03107569721115539
0.06288532675709001
0.046184738955823305
0.19393939393939402
0.03107569721115539
0.08295625942684764
0.10507246376811596
0.06718346253229975
0.1534653465346534
0.1534653465346534
0.07714285714285715
0.08945686900958466
0.08945686900958466
0.10507246376811596
0.046184738955823305
0.06288532675709001
0.09677419354838711
0.07191316146540026
0.046184738955823305
0.04356243949661183
0.05206073752711497
0.3059360730593605
0.05536723163841807
0.09677419354838711
0.09677419354838711
0.046184738955823305
0.08295625942684764
0.05896226415094339
0.04900938477580815
0.10507246376811596
0.06288532675709001
0.10507246376811596
0.05896226415094339
0.046184738955823305
0.0411214953271028
0.10507246376811596
0.04900938477580815
0.08945686900958466
0.22184300341296923
0.05536723163841807
0.06288532675709001
0.04900938477580815
0.06718346253229975
0.046184738955823305
0.09677419354838711
0.22184300341296923
0.08945686900958466
0.09677419354838711
0.17166212534059946
0.07714285714285715
0.17166212534059946
0.11456310679611648
0.09677419354838711
0.06718346253229975
0.024946543121881687
0.08945686900958466
0.07191316146540026
0.10507246376811596
0.07714285714285715
0.10507246376811596
0.03671328671328671
0.05896226415094339
0.05536723163841807
0.034716342082980536
0.09677419354838711
0.08295625942684764
0.12552301255230125
0.03671328671328671
0.05536723163841807
0.12552301255230125
0.1534653465346534
0.10507246376811596
0.12552301255230125
0.05206073752711497
0.08295625942684764
0.04900938477580815
0.13832199546485255
0.0411214953271028
0.08945686900958466
0.22184300341296923
0.05896226415094339
0.03671328671328671
0.17166212534059946
0.05206073752711497
0.12552301255230125
0.07714285714285715
0.07714285714285715
0.038843721770551044
0.13832199546485255
0.07191316146540026
0.034716342082980536
0.024946543121881687
0.06288532675709001
0.07191316146540026
0.04356243949661183
0.02635431918008785
0.02635431918008785
0.12552301255230125
0.07191316146540026
0.07191316146540026
0.13832199546485255
0.12552301255230125
0.05896226415094339
0.12552301255230125
0.07714285714285715
0.046184738955823305
0.07191316146540026
0.12552301255230125
0.22184300341296923
0.08945686900958466
0.19393939393939402
0.05896226415094339
0.09677419354838711
0.10507246376811596
0.12552301255230125
0.09677419354838711
0.07714285714285715
0.07191316146540026
0.05536723163841807
0.12552301255230125
0.06288532675709001
0.08945686900958466
0.05536723163841807
0.19393939393939402
0.08945686900958466
0.08295625942684764
0.08945686900958466
0.07191316146540026
0.07191316146540026
0.07714285714285715
0.08295625942684764
0.09677419354838711
0.12552301255230125
0.09677419354838711
0.02784048156508653
0.12552301255230125
0.10507246376811596
0.07714285714285715
0.13832199546485255
0.05206073752711497
0.10507246376811596
0.046184738955823305
0.1534653465346534
0.11456310679611648
0.10507246376811596
0.03671328671328671
0.06718346253229975
0.10507246376811596
0.034716342082980536
0.0411214953271028
0.09677419354838711
0.12552301255230125
0.06718346253229975
0.4758620689655174
0.07714285714285715
0.13832199546485255
0.08945686900958466
0.12552301255230125
0.06288532675709001
0.11456310679611648
0.09677419354838711
0.05206073752711497
0.05536723163841807
0.17166212534059946
0.10507246376811596
0.09677419354838711
0.09677419354838711
0.12552301255230125
0.07191316146540026
0.12552301255230125
0.04900938477580815
0.07714285714285715
0.17166212534059946
0.06288532675709001
0.046184738955823305
0.05536723163841807
0.12552301255230125
0.07191316146540026
0.04900938477580815
0.0411214953271028
0.05536723163841807
0.11456310679611648
0.06718346253229975
0.07714285714285715
0.08295625942684764
0.07714285714285715
0.0411214953271028
0.06288532675709001
0.07714285714285715
0.0411214953271028
0.03107569721115539
0.03671328671328671
0.08945686900958466
0.07714285714285715
0.08295625942684764
0.08945686900958466
0.07191316146540026
0.05536723163841807
0.11456310679611648
0.05206073752711497
0.06288532675709001
0.10507246376811596
0.05896226415094339
0.12552301255230125
0.0411214953271028
0.13832199546485255
0.0411214953271028
0.11456310679611648
0.13832199546485255
0.11456310679611648
0.046184738955823305
0.12552301255230125
0.07191316146540026
0.19393939393939402
0.04356243949661183
0.05206073752711497
0.06718346253229975
0.06288532675709001
0.06718346253229975
0.11456310679611648
0.17166212534059946
0.07714285714285715
0.07714285714285715
0.13832199546485255
0.07191316146540026
0.12552301255230125
0.07714285714285715
0.10507246376811596
0.37362637362637346
0.02941176470588235
0.4758620689655174
0.05896226415094339
0.07714285714285715
0.1534653465346534
0.12552301255230125
0.07714285714285715
0.05536723163841807
0.10507246376811596
0.11456310679611648
0.08295625942684764
0.08945686900958466
0.05536723163841807
0.08295625942684764
0.07714285714285715
0.13832199546485255
0.25781250000000006
0.0411214953271028
0.046184738955823305
0.05206073752711497
0.06288532675709001
0.07191316146540026
0.08295625942684764
0.08945686900958466
0.06288532675709001
0.05536723163841807
0.02941176470588235
0.06718346253229975
0.10507246376811596
0.12552301255230125
0.08945686900958466
0.06718346253229975
0.07191316146540026
0.038843721770551044
0.17166212534059946
0.19393939393939402
0.05536723163841807
0.11456310679611648
0.05206073752711497
0.1534653465346534
0.05536723163841807
0.05206073752711497
0.13832199546485255
0.09677419354838711
0.04900938477580815
0.02784048156508653
0.06718346253229975
0.046184738955823305
0.04356243949661183
0.07714285714285715
0.04900938477580815
0.03284072249589492
0.05896226415094339
0.10507246376811596
0.17166212534059946
0.06718346253229975
0.03671328671328671
0.05206073752711497
0.17166212534059946
0.07714285714285715
0.22184300341296923
0.25781250000000006
0.07191316146540026
0.10507246376811596
0.07191316146540026
0.05536723163841807
0.13832199546485255
0.08295625942684764
0.038843721770551044
0.05206073752711497
0.22184300341296923
0.06718346253229975
0.04356243949661183
0.07191316146540026
0.11456310679611648
0.07191316146540026
0.046184738955823305
0.1534653465346534
0.06288532675709001
0.04900938477580815
0.13832199546485255
0.12552301255230125
0.06718346253229975
0.05896226415094339
0.05536723163841807
0.06288532675709001
0.09677419354838711
0.1534653465346534
0.13832199546485255
0.05206073752711497
0.05206073752711497
0.10507246376811596
0.04356243949661183
0.10507246376811596
0.07191316146540026
0.06288532675709001
0.10507246376811596
0.05536723163841807
0.06718346253229975
0.06288532675709001
0.04900938477580815
0.07191316146540026
0.10507246376811596
0.1534653465346534
0.07714285714285715
0.08295625942684764
0.08295625942684764
0.07714285714285715
0.07714285714285715
0.09677419354838711
0.06288532675709001
0.046184738955823305
0.06288532675709001
0.05896226415094339
0.0411214953271028
0.12552301255230125
0.05536723163841807
0.07714285714285715
0.04900938477580815
0.08945686900958466
0.05896226415094339
0.07191316146540026
0.05896226415094339
0.13832199546485255
0.0411214953271028
0.05896226415094339
0.07714285714285715
0.05896226415094339
0.11456310679611648
0.06288532675709001
0.05206073752711497
0.08295625942684764
0.038843721770551044
0.07191316146540026
0.034716342082980536
0.05206073752711497
0.1534653465346534
0.07714285714285715
0.12552301255230125
0.19393939393939402
0.11456310679611648
0.10507246376811596
0.05536723163841807
0.05536723163841807
0.05896226415094339
0.02941176470588235
0.08295625942684764
0.17166212534059946
0.05896226415094339
0.04356243949661183
0.12552301255230125
0.10507246376811596
0.04356243949661183
0.06288532675709001
0.0411214953271028
0.05536723163841807
0.13832199546485255
0.06288532675709001
0.09677419354838711
0.05206073752711497
0.06718346253229975
0.06288532675709001
0.0411214953271028
0.07714285714285715
0.06288532675709001
0.12552301255230125
0.25781250000000006
0.038843721770551044
0.07191316146540026
0.06288532675709001
0.07714285714285715
0.05536723163841807
0.05536723163841807
0.08945686900958466
0.1534653465346534
0.06718346253229975
0.10507246376811596
0.08945686900958466
0.034716342082980536
0.04900938477580815
0.05206073752711497
0.09677419354838711
0.04900938477580815
0.05206073752711497
0.12552301255230125
0.07714285714285715
0.06288532675709001
0.06288532675709001
0.05896226415094339
0.03671328671328671
0.04356243949661183
0.648148148148149
0.05896226415094339
0.07191316146540026
0.13832199546485255
0.05206073752711497
0.07714285714285715
0.17166212534059946
0.06718346253229975
0.04900938477580815
0.10507246376811596
0.046184738955823305
0.034716342082980536
0.05206073752711497
0.13832199546485255
0.04356243949661183
0.10507246376811596
0.10507246376811596
0.08295625942684764
0.0411214953271028
0.04900938477580815
0.11456310679611648
0.08295625942684764
0.06718346253229975
0.07714285714285715
0.09677419354838711
0.13832199546485255
0.06718346253229975
0.13832199546485255
0.03671328671328671
0.3059360730593605
0.25781250000000006
0.06288532675709001
0.04900938477580815
0.05206073752711497
0.09677419354838711
0.05536723163841807
0.09677419354838711
0.07191316146540026
0.13832199546485255
0.08945686900958466
0.13832199546485255
0.11456310679611648
0.19393939393939402
0.05896226415094339
0.03284072249589492
0.22184300341296923
0.0411214953271028
0.08945686900958466
0.07714285714285715
0.1534653465346534
0.024946543121881687
0.07191316146540026
0.07714285714285715
0.08945686900958466
0.07714285714285715
0.10507246376811596
0.046184738955823305
0.08945686900958466
0.05896226415094339
0.04900938477580815
0.11456310679611648
0.37362637362637346
0.12552301255230125
0.07714285714285715
0.1534653465346534
0.10507246376811596
0.046184738955823305
0.08945686900958466
0.03671328671328671
0.10507246376811596
0.1534653465346534
0.07191316146540026
0.06288532675709001
0.07191316146540026
0.05536723163841807
0.05536723163841807
0.07714285714285715
0.05536723163841807
0.17166212534059946
0.12552301255230125
0.03671328671328671
0.11456310679611648
0.07191316146540026
0.11456310679611648
0.07191316146540026
0.02941176470588235
0.09677419354838711
0.07714285714285715
0.13832199546485255
0.22184300341296923
0.046184738955823305
0.05536723163841807
0.11456310679611648
0.07714285714285715
0.11456310679611648
0.11456310679611648
0.10507246376811596
0.13832199546485255
0.08295625942684764
0.06718346253229975
0.06718346253229975
0.06718346253229975
0.12552301255230125
0.12552301255230125
0.038843721770551044
0.05896226415094339
0.05896226415094339
0.02941176470588235
0.08295625942684764
0.06288532675709001
0.07714285714285715
0.07714285714285715
0.17166212534059946
0.06718346253229975
0.06718346253229975
0.07191316146540026
0.1534653465346534
0.06288532675709001
0.06718346253229975
0.07191316146540026
0.08295625942684764
0.05896226415094339
0.08295625942684764
0.13832199546485255
0.08295625942684764
0.05206073752711497
0.06718346253229975
0.05206073752711497
0.03671328671328671
0.0411214953271028
0.06718346253229975
0.17166212534059946
0.07191316146540026
0.08295625942684764
0.06288532675709001
0.08945686900958466
0.07191316146540026
0.12552301255230125
0.05896226415094339
0.13832199546485255
0.08945686900958466
0.10507246376811596
0.08945686900958466
0.08295625942684764
0.19393939393939402
0.08945686900958466
0.08945686900958466
0.08945686900958466
0.12552301255230125
0.11456310679611648
0.10507246376811596
0.08945686900958466
0.11456310679611648
0.0411214953271028
0.1534653465346534
0.05896226415094339
0.08945686900958466
0.09677419354838711
0.13832199546485255
0.13832199546485255
0.22184300341296923
0.11456310679611648
0.06718346253229975
0.07714285714285715
0.1534653465346534
0.19393939393939402
0.04900938477580815
0.10507246376811596
0.04356243949661183
0.07191316146540026
0.03671328671328671
0.07714285714285715
0.0411214953271028
0.05896226415094339
0.05206073752711497
0.05896226415094339
0.12552301255230125
0.08295625942684764
0.1534653465346534
0.0411214953271028
0.12552301255230125
0.08945686900958466
0.09677419354838711
0.13832199546485255
0.05896226415094339
0.10507246376811596
0.13832199546485255
0.07714285714285715
0.11456310679611648
0.05536723163841807
0.12552301255230125
0.04900938477580815
0.07191316146540026
0.07714285714285715
0.11456310679611648
0.3059360730593605
0.05896226415094339
0.06288532675709001
0.22184300341296923
0.05536723163841807
0.12552301255230125
0.046184738955823305
0.04356243949661183
0.09677419354838711
0.11456310679611648
0.07191316146540026
0.05896226415094339
0.08945686900958466
0.17166212534059946
0.12552301255230125
0.19393939393939402
0.08295625942684764
0.08295625942684764
0.08945686900958466
0.05896226415094339
0.08945686900958466
0.17166212534059946
0.12552301255230125
0.05896226415094339
0.07191316146540026
0.04356243949661183
0.07191316146540026
0.17166212534059946
0.07714285714285715
0.13832199546485255
0.09677419354838711
0.05896226415094339
0.12552301255230125
0.09677419354838711
0.08945686900958466
0.08945686900958466
0.0411214953271028
0.05206073752711497
0.06288532675709001
0.06288532675709001
0.11456310679611648
0.10507246376811596
0.09677419354838711
0.06718346253229975
0.12552301255230125
0.11456310679611648
0.19393939393939402
0.05536723163841807
0.06288532675709001
0.13832199546485255
0.0411214953271028
0.06718346253229975
0.08295625942684764
0.11456310679611648
0.046184738955823305
0.08295625942684764
0.37362637362637346
0.17166212534059946
0.22184300341296923
0.11456310679611648
0.17166212534059946
0.06718346253229975
0.22184300341296923
0.02784048156508653
0.05536723163841807
0.05896226415094339
0.10507246376811596
0.1534653465346534
0.07714285714285715
0.04356243949661183
0.07191316146540026
0.08295625942684764
0.03671328671328671
0.08945686900958466
0.13832199546485255
0.07714285714285715
0.09677419354838711
0.08945686900958466
0.06718346253229975
0.05536723163841807
0.08295625942684764
0.06288532675709001
0.11456310679611648
0.13832199546485255
0.07714285714285715
0.02941176470588235
0.024946543121881687
0.12552301255230125
0.19393939393939402
0.038843721770551044
0.07714285714285715
0.3059360730593605
0.08295625942684764
0.0411214953271028
0.07191316146540026
0.07191316146540026
0.07191316146540026
0.0411214953271028
0.1534653465346534
0.12552301255230125
0.06718346253229975
0.12552301255230125
0.05536723163841807
0.07714285714285715
0.034716342082980536
0.08945686900958466
0.06288532675709001
0.04900938477580815
0.07714285714285715
0.08945686900958466
0.07714285714285715
0.07191316146540026
0.07714285714285715
0.09677419354838711
0.04900938477580815
0.03671328671328671
0.11456310679611648
0.12552301255230125
0.04900938477580815
0.05206073752711497
0.07191316146540026
0.11456310679611648
0.07714285714285715
0.12552301255230125
0.04900938477580815
0.04900938477580815
0.1534653465346534
0.11456310679611648
0.11456310679611648
0.1534653465346534
0.04356243949661183
0.12552301255230125
0.08945686900958466
0.09677419354838711
0.06288532675709001
0.07191316146540026
0.17166212534059946
0.05896226415094339
0.3059360730593605
0.13832199546485255
0.19393939393939402
0.08295625942684764
0.06288532675709001
0.03671328671328671
0.04900938477580815
0.09677419354838711
0.10507246376811596
0.04356243949661183
0.13832199546485255
0.046184738955823305
0.08945686900958466
0.08295625942684764
0.046184738955823305
0.02941176470588235
0.648148148148149
0.07714285714285715
0.3059360730593605
0.046184738955823305
0.08295625942684764
0.12552301255230125
0.02361111111111111
0.08945686900958466
0.05896226415094339
0.12552301255230125
0.05896226415094339
0.07191316146540026
0.22184300341296923
0.04900938477580815
0.09677419354838711
0.13832199546485255
0.07714285714285715
0.07191316146540026
0.10507246376811596
0.13832199546485255
0.1534653465346534
0.1534653465346534
0.07191316146540026
0.07191316146540026
0.038843721770551044
0.1534653465346534
0.10507246376811596
0.25781250000000006
0.05206073752711497
0.17166212534059946
0.10507246376811596
0.08945686900958466
0.12552301255230125
0.07191316146540026
0.19393939393939402
0.07714285714285715
0.04356243949661183
0.05536723163841807
0.09677419354838711
0.05206073752711497
0.05206073752711497
0.05206073752711497
0.09677419354838711
0.05536723163841807
0.12552301255230125
0.08945686900958466
0.08945686900958466
0.10507246376811596
0.19393939393939402
0.07191316146540026
0.046184738955823305
0.06718346253229975
0.05896226415094339
0.07714285714285715
0.05896226415094339
0.05896226415094339
0.06718346253229975
0.06718346253229975
0.04356243949661183
0.05896226415094339
0.06288532675709001
0.0411214953271028
0.08945686900958466
0.04356243949661183
0.0411214953271028
0.05896226415094339
0.12552301255230125
0.17166212534059946
0.07191316146540026
0.08295625942684764
0.17166212534059946
0.25781250000000006
0.1534653465346534
0.06718346253229975
0.1534653465346534
0.3059360730593605
0.1534653465346534
0.19393939393939402
0.10507246376811596
0.08295625942684764
0.25781250000000006
0.05896226415094339
0.11456310679611648
0.11456310679611648
0.046184738955823305
0.06718346253229975
0.07191316146540026
0.04356243949661183
0.07191316146540026
0.08945686900958466
0.17166212534059946
0.08295625942684764
0.06718346253229975
0.06718346253229975
0.07191316146540026
0.06288532675709001
0.07191316146540026
0.08945686900958466
0.10507246376811596
0.04356243949661183
0.04900938477580815
0.1534653465346534
0.03671328671328671
0.0411214953271028
0.04356243949661183
0.046184738955823305
0.05896226415094339
0.07191316146540026
0.13832199546485255
0.10507246376811596
0.04900938477580815
0.22184300341296923
0.09677419354838711
0.06288532675709001
0.04900938477580815
0.04900938477580815
0.05536723163841807
0.07714285714285715
0.05206073752711497
0.07714285714285715
0.08945686900958466
0.05536723163841807
0.11456310679611648
0.04356243949661183
0.034716342082980536
0.08945686900958466
0.09677419354838711
0.10507246376811596
0.05206073752711497
0.09677419354838711
0.05896226415094339
0.038843721770551044
0.05896226415094339
0.12552301255230125
0.07191316146540026
0.04900938477580815
0.03107569721115539
0.13832199546485255
0.09677419354838711
0.22184300341296923
0.1534653465346534
0.09677419354838711
0.05536723163841807
0.17166212534059946
0.08295625942684764
0.04900938477580815
0.06288532675709001
0.11456310679611648
0.13832199546485255
0.04356243949661183
0.08295625942684764
0.05206073752711497
0.05896226415094339
0.046184738955823305
0.09677419354838711
0.17166212534059946
0.17166212534059946
0.12552301255230125
0.10507246376811596
0.03671328671328671
0.13832199546485255
0.12552301255230125
0.06288532675709001
0.038843721770551044
0.04356243949661183
0.13832199546485255
0.05536723163841807
0.03284072249589492
0.12552301255230125
0.10507246376811596
0.05206073752711497
0.08945686900958466
0.07714285714285715
0.11456310679611648
0.12552301255230125
0.11456310679611648
0.08945686900958466
0.09677419354838711
0.19393939393939402
0.17166212534059946
0.08945686900958466
0.11456310679611648
0.17166212534059946
0.07714285714285715
0.04356243949661183
0.0411214953271028
0.1534653465346534
0.06718346253229975
0.10507246376811596
0.06718346253229975
0.08945686900958466
0.3059360730593605
0.06288532675709001
0.08295625942684764
0.07714285714285715
0.038843721770551044
0.10507246376811596
0.05206073752711497
0.0411214953271028
0.0411214953271028
0.06288532675709001
0.06718346253229975
0.02784048156508653
0.08945686900958466
0.11456310679611648
0.04356243949661183
0.08295625942684764
0.05896226415094339
0.11456310679611648
0.12552301255230125
0.04900938477580815
0.06288532675709001
0.06718346253229975
0.05206073752711497
0.06718346253229975
0.17166212534059946
0.05536723163841807
0.05896226415094339
0.06288532675709001
0.06718346253229975
0.03107569721115539
0.12552301255230125
0.03671328671328671
0.10507246376811596
0.10507246376811596
0.13832199546485255
0.06288532675709001
0.13832199546485255
0.07191316146540026
0.06718346253229975
0.08295625942684764
0.05896226415094339
0.04356243949661183
0.08295625942684764
0.024946543121881687
0.02941176470588235
0.1534653465346534
0.06718346253229975
0.13832199546485255
0.1534653465346534
0.37362637362637346
0.12552301255230125
0.10507246376811596
0.08295625942684764
0.09677419354838711
0.11456310679611648
0.12552301255230125
0.06288532675709001
0.06718346253229975
0.04900938477580815
0.05206073752711497
0.05536723163841807
0.08945686900958466
0.04356243949661183
0.04900938477580815
0.17166212534059946
0.05536723163841807
0.17166212534059946
0.19393939393939402
0.37362637362637346
0.08295625942684764
0.05896226415094339
0.05536723163841807
0.08295625942684764
0.04900938477580815
0.03284072249589492
0.13832199546485255
0.1534653465346534
0.22184300341296923
0.08945686900958466
0.038843721770551044
0.07191316146540026
0.07714285714285715
0.0411214953271028
0.22184300341296923
0.06718346253229975
0.08945686900958466
0.08295625942684764
0.07714285714285715
0.038843721770551044
0.06288532675709001
0.09677419354838711
0.06718346253229975
0.05206073752711497
0.12552301255230125
0.17166212534059946
0.37362637362637346
0.05206073752711497
0.05896226415094339
0.034716342082980536
0.08295625942684764
0.05536723163841807
0.07714285714285715
0.07714285714285715
0.0411214953271028
0.08295625942684764
0.021136063408190228
0.10507246376811596
0.08945686900958466
0.07191316146540026
0.10507246376811596
0.17166212534059946
0.05896226415094339
0.25781250000000006
0.05896226415094339
0.06718346253229975
0.13832199546485255
0.13832199546485255
0.08295625942684764
0.046184738955823305
0.10507246376811596
0.13832199546485255
0.12552301255230125
0.13832199546485255
0.22184300341296923
0.04356243949661183
0.13832199546485255
0.10507246376811596
0.05536723163841807
0.1534653465346534
0.06288532675709001
0.07191316146540026
0.02784048156508653
0.1534653465346534
0.22184300341296923
0.08945686900958466
0.19393939393939402
0.07191316146540026
0.06288532675709001
0.03671328671328671
0.09677419354838711
0.06718346253229975
0.1534653465346534
0.07714285714285715
0.038843721770551044
0.11456310679611648
0.08945686900958466
0.06718346253229975
0.046184738955823305
0.08295625942684764
0.038843721770551044
0.08295625942684764
0.25781250000000006
0.05896226415094339
0.04900938477580815
0.08295625942684764
0.034716342082980536
0.08295625942684764
0.10507246376811596
0.05896226415094339
0.09677419354838711
0.12552301255230125
0.10507246376811596
0.06288532675709001
0.05536723163841807
0.046184738955823305
0.08945686900958466
0.07191316146540026
0.12552301255230125
0.1534653465346534
0.06718346253229975
0.06718346253229975
0.19393939393939402
0.04356243949661183
0.12552301255230125
0.06288532675709001
0.13832199546485255
0.12552301255230125
0.08945686900958466
0.05896226415094339
0.02635431918008785
0.17166212534059946
0.04356243949661183
0.038843721770551044
0.04356243949661183
0.05896226415094339
0.13832199546485255
0.10507246376811596
0.17166212534059946
0.07191316146540026
0.05206073752711497
0.12552301255230125
0.06288532675709001
0.05206073752711497
0.22184300341296923
0.11456310679611648
0.06718346253229975
0.06718346253229975
0.08295625942684764
0.05536723163841807
0.034716342082980536
0.04356243949661183
0.08945686900958466
0.17166212534059946
0.13832199546485255
0.046184738955823305
0.17166212534059946
0.06288532675709001
0.09677419354838711
0.03284072249589492
0.06718346253229975
0.11456310679611648
0.06288532675709001
0.08945686900958466
0.08945686900958466
0.05206073752711497
0.08295625942684764
0.046184738955823305
0.12552301255230125
0.08945686900958466
0.09677419354838711
0.22184300341296923
0.07714285714285715
0.08945686900958466
0.09677419354838711
0.07191316146540026
0.05206073752711497
0.07191316146540026
0.07714285714285715
0.07714285714285715
0.07191316146540026
0.12552301255230125
0.04356243949661183
0.11456310679611648
0.05896226415094339
0.25781250000000006
0.06718346253229975
0.07191316146540026
0.13832199546485255
0.13832199546485255
0.06718346253229975
0.13832199546485255
0.05896226415094339
0.05206073752711497
0.07714285714285715
0.22184300341296923
0.13832199546485255
0.07714285714285715
0.08945686900958466
0.06718346253229975
0.04356243949661183
0.06288532675709001
0.04356243949661183
0.05896226415094339
0.06718346253229975
0.07191316146540026
0.05896226415094339
0.08945686900958466
0.11456310679611648
0.034716342082980536
0.09677419354838711
0.08295625942684764
0.03284072249589492
0.07714285714285715
0.046184738955823305
0.05206073752711497
0.05206073752711497
0.19393939393939402
0.06718346253229975
0.11456310679611648
0.12552301255230125
0.03284072249589492
0.12552301255230125
0.04356243949661183
0.07714285714285715
0.0411214953271028
0.10507246376811596
0.06718346253229975
0.17166212534059946
0.11456310679611648
0.06718346253229975
0.05896226415094339
0.12552301255230125
0.038843721770551044
0.07191316146540026
0.05206073752711497
0.08295625942684764
0.08945686900958466
0.08295625942684764
0.07191316146540026
0.37362637362637346
0.10507246376811596
0.05536723163841807
0.08945686900958466
0.06718346253229975
0.12552301255230125
0.06718346253229975
0.13832199546485255
0.08945686900958466
0.37362637362637346
0.08945686900958466
0.08295625942684764
0.07191316146540026
0.07714285714285715
0.13832199546485255
0.17166212534059946
0.07191316146540026
0.06288532675709001
0.046184738955823305
0.07191316146540026
0.17166212534059946
0.07191316146540026
0.07191316146540026
0.05536723163841807
0.06288532675709001
0.07714285714285715
0.10507246376811596
0.4758620689655174
0.07191316146540026
0.034716342082980536
0.03671328671328671
0.08295625942684764
0.22184300341296923
0.0411214953271028
0.25781250000000006
0.05896226415094339
0.12552301255230125
0.046184738955823305
0.034716342082980536
0.08295625942684764
0.08295625942684764
0.0411214953271028
0.17166212534059946
0.06718346253229975
0.04900938477580815
0.12552301255230125
0.046184738955823305
0.25781250000000006
0.06718346253229975
0.11456310679611648
0.12552301255230125
0.17166212534059946
0.07191316146540026
0.11456310679611648
0.03284072249589492
0.07191316146540026
0.04356243949661183
0.10507246376811596
0.08295625942684764
0.07191316146540026
0.03107569721115539
0.03107569721115539
0.04900938477580815
0.024946543121881687
0.17166212534059946
0.13832199546485255
0.06718346253229975
0.08295625942684764
0.25781250000000006
0.05206073752711497
0.05896226415094339
0.07714285714285715
0.10507246376811596
0.05896226415094339
0.10507246376811596
0.11456310679611648
0.08295625942684764
0.05896226415094339
0.1534653465346534
0.13832199546485255
0.07714285714285715
0.37362637362637346
0.10507246376811596
0.10507246376811596
0.08945686900958466
0.06718346253229975
0.37362637362637346
0.13832199546485255
0.046184738955823305
0.05896226415094339
0.13832199546485255
0.06718346253229975
0.04900938477580815
0.08295625942684764
0.12552301255230125
0.13832199546485255
0.05536723163841807
0.25781250000000006
0.06718346253229975
0.03284072249589492
0.13832199546485255
0.12552301255230125