HBA2
HBA1
HBB
ADGRL3
NRXN1
ALCAM
HS3ST2
ERBB4
NKAIN2
CADM2
AL357507.1
CSMD1
LRRTM4
PCLO
LINC00968
AC024230.1
FABP4
LINC01010
AC104574.2
MECOM
RGS6
FAM155A
ZNF804A
NRG3
COL25A1
KCNIP4
LINC02147
WDFY4
HS6ST3
PKHD1L1
CCL21
POSTN
F13A1
GRIA4
HPGD
CXCL14
VEGFC
AC012349.1
CLNK
MGP
AL078590.2
HBD
CLSTN2
TPRG1
MMRN1
TLL1
NKG7
CPA3
NEBL
GPC5
COL8A1
CLU
CLDN5
KIRREL3
MMP9
LINC00639
KCNB2
LINC01695
HTR4
PTPRT
LINGO2
AL391117.1
AC019197.1
AC011287.1
AC013652.1
PCDH11X
BTNL9
CAV2
PRG4
LINC02388
NTRK3
PTCHD4
PLCB4
AHSP
GNLY
ADAMTS9
GPC4
XKR4
PDZRN4
SPARCL1
CDH12
KCNAB1
IFNG-AS1
LRP1B
LGR5
NCKAP5
TRHDE
LINC02227
AC093801.1
GPAM
CDCP1
LUZP2
GPM6A
CDH20
RPS18
ABCB5
DOCK3
RPL13
KIT
RPLP1
CHIT1
LINC00598
LINC01876
RBPJ
PLA2G7
AP002989.1
LTB
UNC13C
ARL15
TM4SF19-AS1
AC002066.1
FTL
SLC14A2
KCNIP2-AS1
HBG2
ATP6V0D2
TPT1
LINC02055
AC010127.1
RAB3C
AL162414.1
PTPRB
WDPCP
PDE3B
MYH11
ALAS2
KCTD8
APOD
PCDH9-AS2
DGKI
HDC
NRXN3
AC107021.1
UBB
EPHA3
SYNPO2
CFD
MAMDC2
TNFAIP6
LPL
AQP1
LINC01478
AL356479.1
AC018742.1
RBP7
VLDLR-AS1
RYR2
TRDN
RPS14
DIAPH3
PLOD2
RPS6
DHRS9
RGS5
AC092979.1
AC007681.1
BBOX1-AS1
AC007529.2
PDE4D
PGAP1
CARMN
TRHDE-AS1
AC016205.1
AC099673.1
SLC14A2-AS1
CNTN4
RPL28
KCNK2
CCSER1
FGF13
CST3
C7
AC087565.3
CHRM3
ANO2
GREM2
THSD4
KIF18B
DGAT2
ACKR1
AC006387.1
S100A6
TENM4
LINC01060
RPL19
FCRL1
PRKAR2B
SCHLAP1
AFF3
NDUFA4L2
PLCXD3
HBG1
GUCY1A3
TM4SF19
AP000561.1
AP003181.1
ADAMTS18
SPP1
COL21A1
ABCB1
PLA2G2A
BMP6
MYRIP
SPATA9
G0S2
DACH1
ACVR1C
PPP2R1B
CA1
NRCAM
AC010737.1
IGFBP6
FRMPD4
KCNMA1
TENM3
AC090531.1
CLDN10-AS1
AC004160.1
LINC01099
DIRC3
SLC8A3
C5orf17
CD163L1
FILIP1L
SLC7A11
CCL5
CUX2
ST6GALNAC3
AC079298.3
PLIN4
AC091939.1
RPL18
PIEZO2
ULK4
P2RY14
RPS12
SORBS1
RAB27B
GPC6
LINC01098
CPNE4
DCSTAMP
PLIN1
RPS8
FLT3
SGCZ
PDE8B
AL356277.3
MRC1
AC097478.1
RAPGEF5
BIRC3
AC004053.1
FGF10
CA4
C8orf34
PROX1
AOAH
VWF
PPM1E
SCN9A
ADIRF
SLC19A3
PCDH11Y
PCDH9
THSD7A
PTPRQ
FN1
RPL11
ZNF385D
ELL2
GRIK2
ALDH1A1
TEX41
EMCN
RPS19
BANK1
DISC1FP1
DKK2
PCDH15
BRINP3
AC012501.1
LINC02237
GABRB2
SLPI
LIPE-AS1
VCAM1
MAOA
RELN
SLC9C1
HBM
ADRA1A
LIPE
COL1A1
BMPER
LINC01021
SYT1
RPS4X
SCN3A
TPO
ATP1A2
MKI67
GLCCI1
ADH1B
AC018616.1
MGAT4C
C4orf22
ENOX1
ACSL1
AC138305.1
PHLDB2
ANKRD30A
MAOB
LINC01170
SLC22A3
IL7R
LAMP3
ADGRB3
AC244205.1
ANLN
TOP2A
TTN
SEMA5A
ITGA7
ANO3
SFRP4
NLGN1
KLHL14
RDH5
GALNT17
RPL8
HOOK2
RPL29
CD83
LINC00276
AC079760.2
ADAMTS12
MDGA2
ID1
AC138123.2
PNLIPRP3
AC099560.1
LSAMP
SPON1
AC015522.1
PTGER3
AC025470.2
TACR1
RANBP3L
CLVS1
CLDN10
AC139720.1
SAA2
SNTG2
LINC01197
HPSE2
IGFBP7
ST8SIA6
LY86-AS1
ANGPT1
NPY1R
GYG2
NTM
GRID2
ADGRL4
CADPS
RPL34
SLCO5A1
BLK
LBP
KLHL4
AC100849.1
AQP7
MROH9
AC104809.2
CADM1
ATP1B3
SAA2-SAA4
AC124254.1
ACACB
PFKFB1
CYYR1
AC020637.1
PZP
TBL1Y
IL18R1
PLXNA4
SDS
RGS7
LINC00540
SLC8A1
IL1RAPL1
ARNTL2
CCDC26
KCNIP1
PPP2R2B
THEMIS
TOX
CAMK4
LINC02360
PDE1A
AJ009632.2
FRMD4B
RPS3
EYA4
AC093772.1
AC129807.1
SIK2
MEOX2
RGS13
LINC00992
FGF2
APOE
PTCHD1-AS
ITGA8
LINC01697
AC243829.4
UGP2
MGST1
PAX5
GJA5
GPD1
ST18
SLC39A8
ARPP21
B2M
KCNMB2-AS1
CLIC5
HDAC9
CCL2
LINC00871
MS4A2
LVRN
CCBE1
B4GALT6
ITGBL1
AC114689.3
GZMH
TAGLN
LINC02008
DAPK2
NEDD4L
RYR3
MAMDC2-AS1
AL035401.1
AC004052.1
SORCS1
LEF1
PLD5
GPT2
SULF1
AC026167.1
AC068051.1
COLEC12
GUCY1A2
AC005885.1
AC245427.1
TNFRSF21
AC106729.1
SLC1A3
FCN1
SLC4A10
RPL30
AC069277.1
APOLD1
LINC01505
CASQ2
ABLIM3
AC024901.1
MET
DMD
MS4A1
SCN2A
MAPK10
AC092691.1
AC099566.1
ADAMTSL1
TGFB2
HSD52
AP002518.2
PAPPA2
CRIM1
RPS16
ADARB2
AC019183.1
TRPM3
LRFN5
ESRRG
EFNB2
CCDC141
NOX4
AC023590.1
PDZD2
MARCH3
GLYAT
AC109466.1
PNPLA2
THSD7B
AC098617.1
AC074327.1
AC015660.3
RPS23
INPP4B
PTPRR
IFITM3
TSPAN8
TFEC
CTNNA3
LINC01266
EDIL3
AL358394.3
AC012668.3
LINC01301
ADIPOQ
LINC00840
S100A10
TMSB4X
KCNA2
IGF2
ROBO2
LGMN
NCAM2
CYYR1-AS1
DPYS
CYP7B1
TENM2
ITGAX
FTH1
GRK3
MCTP1
EPHA6
HLA-C
FGF1
SLC16A10
BCL11A
LINC01239
MYOCD
CD247
HLA-DQA1
CHODL
ADAM12
TMEM132C
NABP1
LINC01194
AC092546.1
COL6A6
DLGAP2
TSPAN5
XACT
AC010967.1
SLC18A2
C3
PDE1C
AC008840.1
FCGBP
MACROD2
RPS5
CPM
AC087857.1
RNF150
CCDC3
ASIC2
KCND2
NRG1
MZB1
MAST4
TSGA10
LYN
ASPM
AC005699.1
MEST
GHR
CCL18
NR4A3
LINC02511
PRDM16
SKAP1
RPLP2
SLC35F1
AP000311.1
ADCY5
AC002454.1
LINC01748
CIDEC
BTBD11
CLEC12A
ST6GALNAC5
LINC01340
LINC01091
CLEC14A
SEMA3A
KALRN
TNC
PYGL
DPP6
ITGA1
AK5
COL4A2
LINC01515
COBLL1
KCNQ5
SLC24A3
PLVAP
LIMCH1
LINC01934
LINC02240
AC087482.1
MLXIPL
AC069208.1
AC016708.1
AKAP6
ADAM28
KLRB1
A2M
FAU
KHDRBS2
PI16
WFDC21P
PPP1R9A
AGBL4
RPL32
Z99289.1
LINC02398
AC099499.1
GALNT18
ACTB
BCL2
AL445250.1
CLDN11
FRAS1
UNC5C
ADAMTS19
PARM1
GRIN2B
TSPAN2
AL365203.1
AC008591.1
C14orf39
EEPD1
AC112493.1
HSD11B1
MS4A4E
PIK3C2G
LIX1
H2AFY2
COL4A1
IGKC
SSUH2
TMEM108
PFKFB3
COL11A1
COL3A1
PTH2R
TIMP1
AC108062.1
NELL2
AC104041.1
AL138694.1
PCSK5
ADAMTS16
SLC16A12
GRIN2A
AL031599.1
LINC00924
PART1
CCDC178
PTCH2
COL14A1
PLA2G16
NALCN
FLT1
LINC01358
AC007422.2
GRM7
CLEC4C
CNTN1
AC007743.1
KCTD16
PRLR
CDK15
STK32B
LINC00504
HK2
AL033504.1
FMO2
ARHGAP22
DNAH6
SYN2
CHSY3
CPVL
ACTG2
SAT1
KNL1
AC060234.3
PTPRZ1
CCDC102B
ENPP1
RPS13
GPC3
CHST15
TMSB10
LINC00603
LINC00607
EBF2
LINC01982
LINC00578
AC023194.3
KANK4
LINC01013
CRTAC1
PPARG
CACNA1B
SLCO2B1
UBASH3B
STOX2
SOX5
LINC01568
CHST11
LINC01950
MEG8
PGM5
MSR1
ZNF385B
AP001972.4
CD3D
ABCC3
APCDD1
GZMA
ISM1
FGF14
IQGAP3
PDZRN3
GZMB
PALM2-AKAP2
RIMS1
CENPF
SDK1
BMX
ENPP2
AC009975.1
CTIF
ADAMTS6
BBOX1
AL442163.1
PALMD
AC008056.1
CREB5
GABRA2
SPOCD1
MDM2
UPP2
LUM
RGS1
SYCP1
AC022075.1
ANGPTL4
AGMO
LINC02211
KLRC1
PRR16
SAMMSON
SAMD3
AC007388.1
LGALS1
LINC01036
LINC01362
MARC1
CALCRL
SLC4A1
AC093607.1
KCNB1
VCAN-AS1
SOX2-OT
AL138720.1
SPRY4-AS1
TMEM164
ANK3
ITGA4
LRRC4C
VCAN
SYN3
CEACAM1
NAV2
KIAA1211
SOX6
NKAIN3
AC055758.2
PRSS23
S100Z
KLHL31
CD96
LINC01481
FIGN
SGO1-AS1
ZBTB7C
AKAP12
SPAG16
AC124657.1
ELMOD3
DNAJC5B
ABCB11
AC010511.1
DAPL1
PSMA1
LINC00470
COL4A4
VWC2
KCND3
AP001605.1
ADAMTS3
AL513283.1
NTS
KLB
SORBS2
C2orf48
RNF152
PXDN
FAM111B
AC113383.1
AC090568.2
EGFL7
CIDEA
C2CD2
PODXL
AR
CDH13
IL32
AC008691.1
NR2F2-AS1
AC027627.1
KIAA1217
LURAP1L-AS1
C1orf186
CFAP221
S100A4
TM4SF1
CHST8
ITGB1
CTSC
AL110292.1
FAM162B
MIR646HG
NNAT
MYO16
DCDC2C
ACER2
PRICKLE2
LMOD1
ZNF117
GBE1
FAM19A1
LIX1-AS1
RTN1
ATRNL1
SLC24A4
PTPRF
RPL35A
STEAP4
AC110023.1
ERG
ITIH5
COL4A2-AS2
PRKCB
ATP10B
CXXC4-AS1
PC
BUB1B
RTKN2
AC107419.1
AC093110.1
ASPH
AC002429.2
LTF
MAGEC3
MEOX1
PDE4B
LINC00278
TLN2
SLCO2A1
PTX3
LINC01725
FRMD3
IGLC3
LINC00989
MIR2052HG
CMSS1
LNX1
ZNF19
CPXM2
ACSS2
FPR3
TNFRSF11A
LMCD1-AS1
SOX18
ADAMTS4
AP001528.2
PCDH7
AC104123.1
GCLC
JCHAIN
MFAP5
AL590867.1
CASC19
KCNK13
TF
COBL
LYVE1
STXBP6
SGIP1
MS4A6A
PDGFD
SLCO6A1
RPS11
MSC-AS1
NNMT
ALDH1A2
KCNIP2
ACADL
FHOD3
SLC8A1-AS1
SNCA
MGLL
NWD2
KCNJ3
KIF14
AC092650.1
SEMA3E
DCHS2
NRP2
MLIP
NUSAP1
Z93403.1
AC009313.1
ENPP3
RPS27
ME1
PCOLCE2
AC098829.1
AC046136.1
RNLS
RGCC
GNAI1
COL24A1
THY1
NECAB1
PRKG2
KLRF1
AC120193.1
CCL24
LINC00551
LINC01931
AC037486.1
LINC02296
WIPF3
ADAMTS1
PPFIA2
AC062004.1
AC073050.1
SPAG17
LGR4
IFI44L
AC073529.1
JAKMIP2
ZMAT4
SRPX2
MYO1E
SLC17A3
VKORC1L1
CD52
IL1R2
BCAT1
KYNU
SAMD5
TMEM131L
TNIK
HRH1
SGK1
CXorf36
FAP
CACNB2
AC011586.1
SERPINE2
GNAT3
FAM19A2
AL392023.2
AC079465.1
AC109779.1
BCL11B
RPL27
LINC02149
TRBC2
PXDNL
IRS2
FNDC1
RALGPS2
NOS1
TNS1
CX3CL1
AC009803.1
VIM
ADCY6
AL603840.1
UNC5B
ADAMTS5
ACSS3
LINC01088
NPL
ELOVL7
LINC00299
AC040174.1
MIR4300HG
RIPOR2
AC007091.1
FGF7
AC090993.1
TMEM170B
AC079380.1
GRIA2
LINC01965
PPBP
LINC01619
LINC00861
DTNA
PAMR1
AC087280.2
ARHGEF6
PKP2
SHANK3
JAM2
LINC02345
LINC01268
AC005550.3
AC128707.1
ABCA9-AS1
NEURL1B
AC008415.1
SLC30A10
RBPMS
GNA14-AS1
ZNF366
STEAP2-AS1
C4orf32
ADGRF5
RERG
LINC02476
TMEFF2
SVEP1
KCNS3
LAMA3
SLC25A21
CDH19
LINC01500
LINC02432
PEMT
AL022068.1
LINC00923
RBM47
TMEM232
MIR325HG
AC092131.1
AC108866.1
CDH8
SH3BGRL3
NOS1AP
MELK
OSTN
NTN1
HLA-A
CSRP2
PAQR5
CA8
IGF1
IQGAP2
DAB1
CFAP54
COL27A1
ZBTB16
ALDH2
RCAN2
SERPINE1
SIM1
AL442647.1
RNASE1
PYHIN1
NPR3
DSCAML1
TBXAS1
LRRTM3
SHANK2
FBP1
AL807742.1
AC073082.1
CALCB
NCEH1
AC012409.2
AP001599.1
CD63
AC135782.1
CXCL9
RPS9
AC064834.1
FASN
IQSEC3
SAMD12
MID1
GDF10
IGFBP5
KLHL29
SLIT2
AL136018.1
CACNA1C
AADACL2-AS1
CD163
IGHM
IGFBP3
ARHGAP20
TMEM178B
RUNX2
FSHR
CDH10
PRKG1
RAP1GAP2
PAPPA
ABCC6
LINC02346
TP63
ITM2A
OCA2
CLMP
PTN
NCAM1
PARD6G
TEAD1
AL160191.1
LINC02416
ESCO2
AL138828.1
LINC02306
CD36
STAC
WNT9B
AC091946.1
AC004704.1
RUNDC3B
RPS15A
ZNF608
CCL19
AP005203.1
CLDN1
LINC00534
MAGI1
AL390783.1
ENTHD1
FAM107B
HLA-B
NPAS3
PDE7B
TTPA
RGL1
AC011247.1
RBM20
STRA6
CCDC172
CPE
CNTN6
AC068992.1
AFF2
SHROOM4
DEPDC1B
MIR193BHG
CFH
AL139383.1
MYBL1
TMEM144
AC007319.1
EYS
AC090921.1
AL356276.1
AC018618.1
IFI27
MMP7
LDB2
ZNF365
MALRD1
SHISA6
HPGDS
AC113137.1
AP002026.1
PDE10A
AC090833.1
PTGFR
C6
GZMK
AL357153.2
AC008109.1
CXCL10
ITGAD
SLC39A14
ID3
LRRIQ3
PECAM1
NR5A2
GAREM1
PECR
DTHD1
EGR3
LINC01572
KCNN3
FCRL2
PPP1R12B
PSG8
SYK
AC098864.1
ACOX1
FBXO32
GLIS3
ANO4
TXK
LAMA4
NRK
NOTCH4
SLC30A8
FAM129C
MT1M
ADAMTSL3
COL4A3
LINC00348
MMP16
MTHFD1L
CCDC170
ADGRE2
CR1
HMCN2
CFAP61
ARHGAP15
FGFBP2
AP001636.3
TMCO5A
RBMS3-AS2
PAK3
AC091885.2
LINC02335
HIVEP3
AL359232.1
STX3
TGM2
KLHL13
DEC1
HACD2
IGLC2
VAT1L
RETSAT
ABCD2
IGSF21
KCNMA1-AS1
GREB1L
SLC38A11
AC008014.1
SAA1
LST1
BHMT2
AC098679.1
COL15A1
GIPR
PCED1B
AP003049.2
FGFR2
MMD
AC004917.1
FGF12
TSPEAR
AC243829.2
NPSR1-AS1
KANK1
RAMP3
RERGL
AL583785.1
MPPED2
AC005906.2
MT2A
MYO1B
AC034195.1
DOCK10
PRF1
NTNG1
AC018697.1
LINC01204
RPS27A
RPL23A
AL359710.1
CACNA2D1
PDGFC
AC111188.1
PDPN
IGHA2
LRRC9
KCNE1
FNIP2
AF165147.1
MITF
LILRB5
NPNT
ADAMTS17
TNFSF14
LINC00907
ADGRG5
IRF8
RPS2
AC116666.1
LINC02006
AL138767.1
AL356022.1
BTBD17
TMIGD1
ABTB2
CCL13
GALNT13
TMTC2
PLPP1
AP001341.1
CA6
ITGA6
CD8B
AL133346.1
AL157911.1
CXCL2
CTSS
AC011139.1
WDR63
C5orf64
AC010235.1
DUSP4
UAP1
RSPO1
SPTSSB
MPZL2
AC103770.1
MLPH
AURKB
OXTR
E2F7
RAPGEF4
EPB41L4B
TMEM233
TRPC6
AC008050.1
LHX6
PLIN5
GPR39
CNR1
GNA14
MS4A4A
AC092802.1
TMEM163
TYR
IRS1
LINC02150
ANO6
SNAP25
CLEC9A
ADIPOQ-AS1
ERV3-1
GYS2
HRASLS5
AC112206.2
BRIP1
CROCC2
AL390860.1
LINC02201
CD7
TRABD2B
HILPDA
RPL13A
ZBED3-AS1
AL355390.2
IKZF1
AC008056.2
EDA
ANGPT4
DGKB
AL109930.1
GS1-24F4.2
AL138899.1
LINC00692
SEMA6D
SV2B
GADL1
KDR
UBA52
FLRT2
OPRM1
LINC01324
PNPLA3
EDNRA
MACC1
AC005208.1
AC105411.1
AC019211.1
AC116345.1
AC093865.1
AL589740.1
AL391704.2
FADS3
AC093510.1
KRTAP10-4
GREB1
FERMT2
AC009055.1
TEK
PIP5K1B
HMCN1
FYB2
CNKSR3
MUSK
ADGRG4
NCAPH
DPY19L2
PDE3A
EPM2A
SYNDIG1
ACE2
LINC02400
PI15
SLFN14
ROS1
EPHA7
SEMA5B
LINC02197
SCIN
PLEKHH2
AC104827.1
AP000462.1
VSIG4
AC110995.1
SUCNR1
ANKFN1
LRRIQ1
DYNC1I1
FYB1
SCN5A
AC027701.1
SRPX
ST8SIA1
STAB2
RSPO3
CFAP69
AC025569.1
EPS8
CASC17
IDH1
AL359738.1
LINC01709
LINC02113
AC092819.1
CLDN22
LINC01350
TRGV2
DAAM1
AC091976.1
TFF3
TXNRD1
MIR3936HG
GLDN
NLGN4X
COL5A3
CYP1B1-AS1
AC008957.2
SIGLEC1
GNG11
AL157871.4
FAM13C
CHN2
RGS7BP
MDFIC
NOVA1-AS1
MOGAT1
AC124947.1
LINC02397
MRAS
EMP1
RASGRP3
PTPRE
AF121898.1
LINC01392
SCN7A
MIR222HG
PRDM6
PTGIS
NDST3
YAP1
PCBP3
HCK
ITGB8
DIO2
DGKK
RPS21
AC092920.1
AC025180.1
SLC40A1
PHLDB1
AL160272.1
NR2F1-AS1
AC131025.2
ACTA2
STPG2-AS1
ZNF385D-AS2
CDH6
MCTP2
CALB2
AL359979.1
CCDC160
ANKRD7
P2RX7
LINC00645
CD9
TWIST2
GDNF-AS1
PPARGC1A
CPAMD8
C1QTNF7
MARCO
GABRE
HHIP
RPL15
LINC01440
SLC35F3
ALDH1A3
TPD52L1
FAM227B
LRIG1
RASGRF2
LMCD1
GPRIN3
CD79A
FHIT
AL356108.1
LINC00970
ZFPM2-AS1
SLC7A2
CNBD1
E2F8
NUAK1
LINC01807
KCNT2
AC090124.1
CTSW
AC113386.1
SLC7A6OS
STARD13-AS
LRRC1
NTRK2
TNS3
LINC00882
ABCA5
CAV1
SLC19A2
AL590385.2
DPT
AC084871.1
HS3ST3A1
TLE1
AJ006995.1
AC010343.3
AC004870.4
AC079950.1
GFRA2
GRIP1
C13orf42
FCRL5
C2orf88
SLC26A7
TBX1
GRB14
NEK10
RPL12
STAT4
AC011306.1
CAMP
LINC02078
OPN5
PLA2G2D
MYEOV
ZRANB2-AS2
LINC01913
RPL14
AC016152.1
CILP
CYP27A1
MAP3K20-AS1
ELOVL5
VIPR1
RORB
LINC01787
CDH5
MPP7
PREX2
AC005358.1
RASGEF1B
GABRA3
AC092422.1
ANKRD33B
SH3GL2
BACH2
RASSF4
ESR1
AC005165.1
NALCN-AS1
AC090371.2
AP003066.1
SLC4A4
MYOM1
CRISPLD1
DPP4
MARCH1
ANKUB1
ESR2
LURAP1L
TSHR
SEZ6L
AL136985.3
CCDC88A
CIT
SEMA3C
MAP2
AL078590.3
STC1
CMTM8
POU6F2
LINC01933
RACK1
AP000146.1
AP005230.1
ID4
GALR1
SV2C
RNF144B
FGF10-AS1
OVCH1-AS1
CHMP4C
AP000812.1
LINC01376
POU2F2
RPL10A
ACP5
COMP
EML6
MYO5C
AC019117.1
AC005237.1
PRKCH
HCN1
AC099792.1
DIAPH2-AS1
LINC01524
PAX3
ACSM6
GYPA
AC073941.1
MDH1
SGCG
MAL
OXCT1-AS1
LINC01146
AC008852.1
LANCL3
LINC02232
MYH1
AC009226.1
LIPG
CD74
OTUD7B
TRPC4
ADCY2
WDR49
POF1B
AC134511.1
CRB1
PMEPA1
TMEM182
SAMSN1
PDK4
MIR3681HG
ITGA3
CD3G
LINC01446
CTNND2
AL450332.1
CDH2
AL691403.1
PARPBP
CTSD
MTCL1
SMOC2
PDZK1IP1
STPG2
PCDH19
AP003086.2
LGALS12
P2RX1
FAM160A1
AC092839.1
IFITM2
SYTL2
ATP8B4
CC2D2B
TRAC
TNFAIP8
MLIP-AS1
CARD11
GSE1
LINC00704
KCTD12
AC007255.1
PCK1
CAP2
BICC1
ARHGAP11B
PQLC2L
AC114316.2
ANXA3
CALCR
LINC02098
MS4A7
LINC01484
EGFLAM
CD86
HEY1
THBS1
LRRN3
TPPP3
GCSAML
GATA2
AL138767.3
NEXMIF
DOK6
LHFPL3-AS1
RGS17
HEY2
LINC02355
LINC01230
AC027312.1
PDYN-AS1
AC104151.1
FAM46C
PRKCQ-AS1
LMO3
ST6GAL2
FAM13A
LILRB2
ADAMTS9-AS1
EZH2
RPL27A
SLC4A8
PLEK
GOLGA6L7P
ENTPD1
COL12A1
CNGA1
PAG1
CLSPN
SLC7A6
BST2
STK38L
SLC12A1
HMGCLL1
AC138627.1
AKR1C2
AL591686.2
DAPK1
AC005062.1
LINC02253
AC007495.1
BMPR1B
AC087636.1
NOSTRIN
RPS15
KCNMB2
AF130359.1
AC103409.1
DMGDH
GLIPR1L1
KIF26B
ITK
AL122019.1
AC007513.1
AC018467.1
LINC01684
DLGAP1
CLMAT3
CD300LF
KCNJ1
TIMP4
EPHB1
ANOS1
PACRG
LINC02391
AP005329.2
LRRC53
KIAA1958
STK32A
PKNOX2
AC010451.1
AL390036.1
AL359633.2
AC092832.2
AC002070.1
ASB2
TARID
APCDD1L-AS1
DAB2IP
FBN1
DIO2-AS1
GPIHBP1
SHC3
LIMA1
GRIA1
PPM1H
IPCEF1
UBE2QL1
BX322234.1
ACO1
AC092813.1
ITLN1
LINC01705
ABCA10
LINC02550
AP003025.1
NIPAL1
AC005064.1
CENPE
FAM184A
HTR7
MUC6
NGF
MCOLN2
SRP14
SLC2A9
AC008780.1
AC004448.4
HMGA2
AL355076.2
DHDDS
LEP
RHOXF1-AS1
AL356804.1
SPC25
PEX5L
SH3RF2
CD38
RGS22
MRVI1-AS1
LINC02202
CASS4
SUCLG2-AS1
LINC00535
PRKCQ
VGLL3
RHOBTB3
ANKRD36C
GIPC2
GRK5
NEIL3
CACNA2D3
AC002127.2
AC097537.1
LINC02526
MIR663AHG
AL360091.3
GPR137C
SELP
AC016924.1
DYSF
NETO1
MRVI1
KIRREL3-AS1
PCDH9-AS4
FAM213A
HSPB7
RAMP2
GTF2IRD1
RPS17
AL034397.3
AL359220.1
CHL1
RPL36
AL606804.1
TMEM2
SPNS2
CLEC7A
AC003991.1
AC073365.1
LINC02456
CD300LG
LINC01192
ARHGEF28
MGEA5
RPL37A
AP002075.1
SLC24A2
ADRA1B
MARK1
GFOD1
SYT2
AC010609.1
ACSM4
SLCO4C1
DLEU7
STAB1
CHRDL1
CORIN
CDH18
SLC11A1
PCDH17
FMN1
UBA6-AS1
SLCO1C1
SORT1
STK33
TRG-AS1
DGKG
C6orf10
MTSS1
AC010197.1
C11orf44
AOX1
AC008574.1
CX3CR1
CDH23
DCC
LINC00612
TMTC1
MAP7
RPL36AL
AC104248.1
ARSJ
NXN
P3H2
FMO1
PTGS2
DDAH1
GAS2L3
RRAS2
PKP4
AC009264.1
SLC44A5
SMOC1
KCNQ3
TWIST1
C12orf42
TTTY10
P2RY6
PRAG1
ARHGAP18
EPB41L1
IL1RL1
MEF2C-AS1
PDE5A
HAS2
NREP-AS1
CCR3
AC104078.2
MADD
AP001527.1
DLGAP2-AS1
NOTCH3
AC121154.1
OSGIN2
AL158198.1
AC093833.1
ZG16B
MYLK
DPYSL3
CLIC6
HMOX1
AC079917.1
SLC39A11
LINC02469
AF123462.1
AL121748.1
CDH11
FREM1
DOCK2
ELOVL6
AC078845.1
SMAD1
TNMD
AL512328.1
C9orf84
GTSE1
AC105180.1
SPATA18
ELN
AC093879.1
PIK3AP1
AC095056.1
RXFP2
CATSPERB
ARHGAP28
AC011287.2
AL049812.2
AC090572.2
IKZF3
BAALC
LINC01924
TUSC5
AACS
AC009478.1
AC010997.3
RPS7
CLMN
GRM5
BMP5
CRABP2
LTBP2
SLC5A4-AS1
ADAP2
BLNK
AC007240.1
LINC01618
LINC02546
AC021192.1
AC007923.4
AC006305.1
COL23A1
GRM8
EFEMP1
SOD3
LYPD6
ADAMTS9-AS2
LINC00982
KIF6
SEMA3D
CASC2
CASC15
TRAT1
AP001831.1
LINC01257
MEF2C
AC009163.1
AL138737.1
CRISP3
EXOC1L
MIR3976HG
DAB1-AS1
IGHG3
SLC16A7
LYZ
AL445426.1
AC119868.2
FOLH1
AMPH
SEL1L3
RPL38
OLFM2
PIR
RAP2C-AS1
CCDC85B
AL499616.1
WNK2
GFPT2
CLECL1
JAKMIP1
ADH7
GEM
SMAD6
LINC00159
CD248
MED12L
NQO1
ACSL4
C19orf12
PLEKHA7
GP1BA
LINC02141
NCR3
SELENOP
AC021351.1
AC004158.1
RNF212B
AC004862.1
EFNA5
SOS1
PPM1L
NHSL2
AL031316.1
ANKH
ACTG1
ATP9A
C2orf40
RAB7B
DANT2
F3
MYO5B
KCNH8
TRPS1
PLPPR4
MMP19
NRG2
AC090791.1
APOBEC4
NCALD
CSGALNACT1
SPOCK1
EPAS1
LCP1
ST8SIA6-AS1
ADGRD1
C5orf67
DLEU7-AS1
RPL7A
KCNJ15
PCSK6
IL19
AC130415.1
PCSK1N
AC128685.1
ASTN1
DHDH
CD226
CNTNAP3
TBX2
LINC00971
GRID1
ANKRD29
PPP2R5A
HDAC2-AS2
AL353784.1
DKK1
AL160408.1
CCDC148
AC083923.2
AC022424.2
BOC
AC015878.1
AC092264.1
PDXK
NR2F2
CD2
AC244021.1
LINC02384
AIFM2
PRICKLE1
ADGRG2
AC016642.1
ATF3
CCL4
ADAM23
ZEB1-AS1
LINC00976
CXCL17
RYR1
TMEM156
AL356272.1
SLC7A14
C8orf37-AS1
LIFR
AC068759.1
AL359237.1
CHODL-AS1
LINC01681
B3GALT5
AC107029.2
MEG3
TPX2
HSDL2
CYR61
ITGA11
FSIP2
ADH4
LDLRAD3
AC117386.2
CMKLR1
KIF23
MAP3K20
TSPAN15
AC106791.1
KIF4A
CRYM
ADHFE1
GLRX
AL589935.1
C14orf180
FGR
CACNB4
AC022540.1
UCHL1
TBC1D8
AC019130.1
LINC01579
AC006148.1
VWC2L
APBB1IP
AC022601.1
RNF144A
AC110760.1
LTBP1
AL356270.1
KCNMB4
C4orf45
GLYATL1
FAAH2
PNOC
KLF2
AP003175.1
CIITA
TREM2
WDR11-AS1
C9orf147
NAA11
TFRC
COL4A5
CTH
NFATC2
FAM189A1
AC084346.1
CSRP3
AC017048.2
AL031291.1
OR2A5
AC106882.1
DNASE2B
IGHG1
CPB1
ST8SIA4
AC004470.1
FAM167A
AL096799.1
AL355314.2
CCL22
IGHD
APBA1
ARHGAP42
CFAP70
RPL23
TNFRSF11B
AC010275.1
NETO2
BCL6
AC004594.1
PGBD5
AC023051.1
AP003555.3
COLGALT2
AC090579.1
ALK
CEP55
AC015923.1
DRD3
EBI3
IL12RB2
PTPRC
HUNK
AL050403.2
LINC01133
LINC01393
DCN
AL161751.1
CYP1B1
CTSB
CA3
AGPAT2
STXBP5-AS1
SIX1
AC016723.1
AL844908.1
TMEM27
AL136368.1
LRCOL1
LINC02057
RASSF6
LINC01899
CCL14
ADH1A
AC090115.1
HLA-E
SLFN12L
CCDC196
AC090630.1
BUB1
AL049874.3
UFL1-AS1
EPHA1-AS1
TMEM64
TBC1D2
AC244131.2
COQ8A
AC027288.3
AC068305.3
PLEKHG1
AC007364.1
SLC15A5
MAP3K13
AIM2
TTC29
TACC2
AC091078.1
MAPT
TRPM6
EMP3
AL138733.1
RHOJ
RMDN2-AS1
DACT2
CYSLTR1
AC104596.1
AC125793.1
RGN
SNTB1
RHOH
KMO
AC091901.1
SLC5A4
EYA2
AL365295.1
NRIP1
AC022523.1
LINC01191
C10orf107
CHI3L1
LRRC3B
FHL5
LY86
HMGN5
KIF19
LINC01482
RNF217-AS1
VIPR2
GPR176
CCL8
RET
AC069228.1
PTPRD
LINC01611
MYB
LILRB1
RPS20
JAG1
AC008250.1
GNG12-AS1
AL157392.2
PGF
PLCL1
WSCD2
LIN7A
AL160290.2
MIR155HG
HCST
NREP
HADH
AP000446.1
JCAD
AC020704.1
ST3GAL6
DNAJC6
AL512638.2
TMEM120B
LRRC17
FILIP1
GLYATL2
EPHA4
CASC20
FGF12-AS1
SELE
NCR1
DAAM2
AC079760.1
AC108879.1
COL13A1
HGF
AC063979.2
CD1C
ABI3BP
AC092652.2
AC084200.1
AC096564.1
ASTN2-AS1
TRPA1
PIK3R5
BMP7
KCNJ16
AIG1
IFNLR1
ART4
CDCA8
IGSF11
HEYL
PTMA
LINC02426
ISG15
MGAM
AC020611.2
ZNF331
AC109927.1
CA12
AC079793.1
CADPS2
LINC01885
GPR156
AC100768.2
TKT
DPH6-AS1
GRAP2
AGTR1
FBLN1
AC092155.1
AC073569.2
ITGAL
TSPAN18
OPCML
SPECC1
NACA
MAP1B
NHS
CES1
CD22
AC004870.3
MIR4432HG
SSTR1
HSH2D
CSRNP3
C3orf67-AS1
RASSF9
ABCC4
HJURP
C6orf99
LOXL2
MYRFL
SAMD12-AS1
AL133372.3
LINC02454
MNX1
AC004946.1
AC119677.1
CXCL1
LINC01090
IGFN1
IL1RN
AC097460.1
PPP1R13B
TM4SF18
ABHD12B
AP001783.1
LINC02058
GJA1
C4orf19
AC007100.1
MREG
CGNL1
MAMLD1
NDC80
DNASE1L3
SMURF2
AC078881.1
PLEKHG4
ZBTB46
AL512380.2
CELF2-AS2
AP002370.2
IL2RB
CDK1
PTCHD1
GPR20
ADGRE1
AC105001.1
TMEM51
AC126177.4
LINC00884
SHROOM3
CASC8
MIR4435-2HG
RPL5
ISPD
PLEKHG5
ITSN1
WASF3
PRAM1
TGFBI
SAMD4A
MIR548A1HG
PKP1
SCNN1B
CKAP2L
MT1E
TULP4
CSF1R
KLRD1
KCNE4
TNFRSF4
SORCS2
TNN
KNDC1
CD69
LINC01708
AC079015.1
AC093523.1
AC023669.2
AC027449.1
CXCL8
GPC5-AS1
KCNG1
LINC01629
OR2A12
PKMYT1
ASPG
PSG2
RUNDC3A
SHISA2
CHN1
LINC00113
LRTM1
COL4A6
NEURL2
AC099062.1
AC008514.1
EMB
PRKCA
RFC3
LINC02005
FRK
PRR5L
ZSWIM5
MME
AC092167.1
LRRC63
SNAP25-AS1
CD200
MGC4859
SLC38A4
LINC01226
AC074033.2
SLC26A11
SYTL3
GPAT3
AC015914.1
CAVIN2
MYOZ2
SEPT11
AC105243.1
HFM1
AC012613.1
AL591806.3
LAMA2
IQCM
COX14
DTL
COL18A1
LINC00271
AL162411.1
DNAH14
UVRAG
CNKSR2
C12orf56
SFRP1
THRB
CFAP47
CDKN2B
KCNJ10
AC002383.1
SLC1A2
APMAP
JAML
PKIA
AC010983.1
AC016526.1
AC092673.1
SYNPR-AS1
HEPACAM2
ENG
WARS
CCDC34
DLGAP5
NR6A1
CLIP4
SPRED1
AC068594.1
AC079313.2
LINC02301
PBLD
FTCDNL1
AP000842.2
AL078459.1
ITGB2
GPC6-AS1
RGS20
KCNN2
COL6A3
AC010655.4
CD55
CLEC4F
NRIP3
AC117834.1
FAM196B
RPL10
CSMD2
SATB1-AS1
VWA5A
SEMA6A
RNF165
GBX1
LINC00477
AC013476.1
AC027013.1
ADGRL3-AS1
TMEM132E
SLC22A16
ATP1B1
IQCJ-SCHIP1
OSBP2
TRIM9
DOK5
LINC00298
AC093893.1
LINC00334
GALNT15
EPB41
CTSG
CSAD
FAM110D
B4GALNT3
SCN4B
SKAP1-AS1
RPL35
AC063944.1
ALOX5
DUSP5
DACH2
LINC02172
VLDLR
EYA1
CD200R1
ADGRG6
AC064875.1
CCDC60
AL139158.2
TMEM244
NMT2
MT-ND2
AC246817.1
RTN3
SCML4
BLCAP
RGS18
ICAM1
LINC02328
PTPRS
AC006504.7
GPLD1
CAT
RANBP17
SOX17
HES1
MTERF1
AC022387.1
ARAP2
MT-ND1
AF130417.1
AC060809.1
RPL26
LINC01828
FAM189A2
PDE2A
COL28A1
AMPD3
BCL2A1
LINC02133
MSRB3
FHL2
AC011625.1
LINC02154
AC092944.1
ZMIZ1-AS1
SLC16A2
AC091948.1
DLEU1
LINC00511
RDH10-AS1
AL033527.4
AC072062.1
ZNF804B
SLC12A2
AGBL3
THBD
SRGAP3
KCP
LINC00184
ROR1-AS1
BDNF-AS
PCAT1
TMEM72-AS1
KL
LINC00211
AC108159.1
RASL11B
LINC01605
AC090572.3
SPINK8
FOSL1
SLC6A6
FAT4
AC004870.2
DLGAP1-AS5
MMP3
SLC2A2
AC005008.2
SLC6A1-AS1
AP000944.1
ALPK3
AC037487.4
NFASC
KLRC4-KLRK1
SCG5
MCF2L
CALM1
UTS2B
THRSP
MYO1F
BEND6
AC011294.1
AC015853.2
AC066612.2
AC079117.1
AC090457.1
AC091182.1
AC093911.1
AC096639.1
AC097639.1
AC098872.1
AL020994.2
IDO1
LINC02554
RRM2
MS4A6E
PGM1
PLA2G4A
NOL4
C22orf34
CD84
NPSR1
LINC02050
AC090376.1
FSTL4
PFN1
AL365255.1
IL26
AL391261.2
ECHDC2
AC103949.1
C1R
GRM3
CDS1
RNF157
MBOAT2
PRKD1
NTN4
MT-ND4
NEO1
SNCAIP
FMO3
CCDC59
RAB31
DEPTOR
SUGCT
AC099063.1
EGR1
RNF180
ST6GAL1
TRIM29
AC005515.1
AC005962.2
AC011362.1
AC011524.2
AC018814.1
AC063949.2
AC087749.2
AC089998.1
AC098614.4
AC104984.1
AC124067.4
AL109767.1
AL137002.2
AL137246.2
AL138974.1
AL354893.2
AL357314.1
AL590438.1
AL731533.2
ALOX15B
AP001790.1
AP003721.4
CHGA
CLYBL-AS2
GRIN1
KCNK17
KLHDC7B
LIM2
LINC01497
LINC01993
LINC02470
MRLN
MYH2
NEU4
NPFFR2
NRSN1
OR2L3
PATE2
PTPRN
ROPN1B
SOWAHD
TEPP
TRPM5
VSTM2B
SLC17A9
KLF5
LINC01902
AC098828.3
TM4SF19-TCTEX1D2
AC093909.4
BX088723.1
AC022710.1
AC241644.2
H19
CLEC5A
KIF21A
LMX1A
AC104170.1
SCN3B
AP005120.1
CD93
DPF3
WDR93
RHAG
AXDND1
LGI4
COL1A2
ADAMTS15
ATP13A3
P2RY12
AC008696.2
LGI1
SEMA3F
ALDOB
ESPL1
PPP1R1C
SLC27A6
AC137810.1
AC107032.2
ZFAT
COTL1
TTK
AL139020.1
LINC02338
ADAM19
GK-AS1
EDN1
MCF2
HORMAD2
CFI
AC022784.3
AC128689.1
AC024145.1
SEMA3G
AC008568.1
LINC01791
RAB39A
AC020558.1
DAB2
TMEM56-RWDD3
PTPRJ
AC069272.1
PLCB1
HNMT
AL365275.1
BARD1
C6orf141
AC244517.11
PPP1R16B
SLC6A15
PLK2
TEX9
MYCT1
PLXNA2
CAPN9
GIMAP7
CCDC83
RNF220
AC110009.1
AATK-AS1
AC003984.1
AL713999.1
LINC02407
SLC15A1
UST
AL353613.1
ABCC9
TESPA1
PTPRO
AC004784.1
CCDC39
CTTNBP2
FMNL2
AC021546.1
PTPN3
AC007611.1
NOP53
FOXP2
PIK3R3
AC007785.1
AC010168.1
AC131571.1
SCARB1
CRYAB
AC092436.4
ARHGEF26
LINC01163
GABRP
FAM198B
CATSPERG
AKR1C1
DDIAS
IL20RB-AS1
PAPSS2
TPD52
AC138123.3
LINC00926
APBA2
ARHGEF26-AS1
CACNG8
KC6
AC022360.2
AP002383.3
AL049647.1
CCL3
ANKRD30B
SDC2
APBB2
AC127526.4
AC078955.1
POU2AF1
SNED1
LINC01919
RAI14
SLC25A33
RXFP1
NPY5R
AC100800.1
CST7
PLCG2
KIAA1671
ABLIM2
C2CD6
RAB20
LHFPL3
NFIL3
LINC00937
TC2N
AL359636.1
GRM7-AS1
LINC02233
HMMR
GLRA3
RARB
OSBPL6
MAP3K19
UBA2
ANO5
ABCA1
SKI
IPO9-AS1
LPCAT2
AC097717.1
LMNB1
LINC02316
PRELID2
AC096558.2
LRRC2
SLC25A16
JPH2
F5
LEKR1
LRAT
PF4
FRMD4A
AL356258.1
HSPA12A
AC020718.1
AL392086.1
CRISP2
SMIM10L2B-AS1
TIFAB
AC011369.1
AC103831.1
SERPINB2
SMPDL3B
TPH2
CEP128
GXYLT2
AC096773.1
C17orf64
AC022126.1
MIR34AHG
EMC3
FAM19A5
CRABP1
CRYBB1
LINC01538
AL139246.3
AL356476.1
CENPM
LMOD2
WNT4
FHAD1
LINC00536
DPYD-AS1
CDCA2
AC005224.3
LINC02223
EPHA5
KCTD1
PRUNE2
S100A11
AC009227.1
EHBP1
ECSCR
CLEC10A
TRIM63
IGHA1
TMEM178A
STUM
DLL4
ASS1
FAM177B
AF127577.4
COX4I2
C7orf69
KIAA1211L
MAGI2
LINC01479
AC016907.2
ITGB4
ANKS1B
LPGAT1
NLGN4Y
TMC1
AC005082.1
FBXO39
TMEM139
AC145146.2
LINC02027
NEDD9
RBM38
ADD3-AS1
PCAT29
PPP2R2C
SCN11A
ROBO1
DOCK5
AL034399.2
GDAP1L1
AL139294.1
ADIPOR2
LINC02082
CERS6
ANTXR1
SCGB2B2
AC006269.1
LAX1
RND3
AL133372.2
PILRA
AC090518.1
SIRPG
CSF3R
ALPK2
ACSM5
THBS2
C12orf40
ACMSD
LINC01435
IKZF2
LRRC7
TIMP3
EFHD1
MAN1A1
FAM133A
MYO10
AC112487.1
IFI30
DNAJC18
KCNJ5
CALN1
SMAD9
ARHGAP31
STON2
CADM3-AS1
CD3E
ZC3H12C
AL163952.1
LINC01558
AC022364.1
SLC22A4
EVA1C
KRT1
AC083967.1
AC092958.1
KHDRBS3
SLAMF7
ASB11
AC025219.1
CASC16
LRGUK
KIAA0319
S100B
IGSF23
KIAA1549L
AC009271.1
PLSCR2
HYAL2
EPSTI1
CRHBP
RPS29
LINC01768
MX1
SMC5-AS1
LINC00240
AC005162.3
SH3D19
DBX2
LINC02334
DCLK2
NOS3
IL33
FGD2
TSPAN12
MIR100HG
CD48
TMPRSS11D
GRIA3
PLPP3
RHBDL2
AP003025.2
AL451137.1
AL451164.1
CXCL3
CXCR3
LINC00305
LINC01580
SPX
TOX2
LINC02118
AP001825.1
AC007389.1
PRB1
AL671511.2
SLC22A9
AC005280.1
AL158835.1
LINC01592
FMN2
PRMT8
SLC16A14
STARD13
PLA2G5
SQSTM1
GDAP1
AL359873.1
CCNT2-AS1
AL121983.2
ANKRD65
LTK
AC117513.1
BFSP2
CCR7
AL354732.1
GFRA1
RPL37
LINC00710
LINC01811
DHH
DDIT4
AC096719.1
AC107067.1
F8
C11orf63
PDGFB
DIRC3-AS1
IL2RA
LINC01483
ABRA
AC006960.3
AC007620.3
AC009262.1
AC010913.1
AC016933.1
AC018552.2
AC023644.1
AC025154.2
AC026316.3
AC034232.2
AC073611.1
AC078850.1
AC087242.1
AC092916.1
AF064860.1
AF127577.5
AL033384.1
AL138830.1
AL157884.2
AL161630.1
AL356134.1
AL360012.1
AL590434.1
AP005436.3
BMPR1B-AS1
C10orf91
C1orf158
C5orf47
DIAPH3-AS1
EGLN3-AS1
FOLR1
GHET1
GMNC
GOLT1A
HAPLN2
KLRF2
KRT20
LINC00269
LINC00885
LINC01082
LINC01935
LINC01946
LINC02188
LINC02264
LINC02515
MORC1-AS1
NAT2
OCSTAMP
OLFM4
OR2AG2
OR52N4
OR7D2
POU3F3
QRFPR
RAB40AL
TCP10L2
TM4SF1-AS1
TMEM211
TRAV6
KIAA1755
AC079209.2
KAZN
LINC02250
RFX3-AS1
CENPI
GNGT1
BRCA2
PLAC8
CCDC68
AF127577.2
FIRRE
AL139260.1
CNTNAP4
ADM5
HOOK1
THAP10
DOC2B
NAMPT
SLC5A3
AC022915.2
AC005261.3
AC005670.1
AC121342.1
AL356441.1
ALB
CASC6
LINC00355
LINC01765
AC100843.2
AC002480.1
CYTL1
KLHL6-AS1
CLCA2
FERMT1
FAM69A
CNTFR
LINC01794
DEUP1
AC246817.2
AL357060.2
PPP2R3A
MYH10
BTLA
SYCP2L
AL163932.1
ZNRF3
LINC00944
FAM124A
APLNR
CSTB
CD28
SESTD1
PSD3
SOBP
ARHGEF15
LINC00648
AP001372.1
AC012464.1
FPR1
PLCE1
MIR181A1HG
SPESP1
HLX-AS1
MS4A14
OSMR
AC103591.3
AC003092.1
ICA1
LINC01644
ARAP3
CCDC125
SELL
RBKS
BNIP3L
CPPED1
TMLHE-AS1
C1QTNF3
PTPRK
CACNA1D
PATJ
MEP1B
CNTN3
LAMB1
LRRC36
CRADD
AC023510.1
UNC79
SPTBN4
HPCAL1
XKR9
NRGN
YIPF7
GSTCD
DECR1
AL121721.1
AC007879.3
MBNL3
ARHGAP25
AC087762.1
ALDH1L1
WISP1
TRAF3IP3
MOB3B
AP001021.2
HLA-DRB1
MAP3K5
GRAMD1C
AC106798.1
JPH1
ECHDC3
IL7
LINC01033
ITPR1
SCOC-AS1
AL022323.4
CYP8B1
C8orf34-AS1
RPP25
AL122058.1
LINC02231
SSTR2
ADAM22
AC087525.1
KRT18
KRTAP5-11
LCN6
LINC00346
LINC00943
PLEKHG4B
SLC9A2
TNFSF15
AL023755.1
AC097103.2
PALLD
AC024909.1
GZMM
PIF1
POT1-AS1
ESRRB
DDIT3
AC006145.1
FAM71D
GRB10
PLXNC1
SLC18B1
CACNA1H
TMEM255A
LINC00506
PPP1R3A
LINC02367
TTC22
IFI27L2
MMP28
GRAMD1B
STEAP1B
PGR-AS1
AC006042.2
GLRA1
SLC9A9
GBP1
AL157402.2
VAV3
GLRB
L3MBTL4
AL590006.1
NR2F1
INTU
ADGRL2
ZNF710
FAM105A
NPHP3-AS1
LINC01037
AC009686.1
CLIC3
RASGEF1C
AC010175.1
CDC25C
RASIP1
EHHADH
CATSPERE
CPEB2-AS1
CD59
CTSL
SFMBT2
CLEC1A
SCARA5
AC022031.2
SHCBP1L
TMEM154
AC007277.1
RUNX3
SUCLA2
PPL
EGR2
FANCA
LINC02257
GSTP1
FRMD6
SGCD
AC026746.1
A2ML1
ADCY1
JADE1
GULP1
MKL2
PGR
MT-ND3
ZNF215
PMFBP1
LINC01915
GUCY1B3
GPR75-ASB3
TMEM200A
AL355838.1
AC093895.1
APOB
CD8A
AC007529.1
AC132219.1
DLG2
GNAL
AC004009.1
KCNE2
LINC01704
AC108721.1
AL031666.1
AP000880.1
GLP1R
LINC00609
STMN4
AC002470.1
AC010999.1
FLT4
IL18RAP
RCSD1
PROX1-AS1
LEF1-AS1
IL23R
C21orf62-AS1
AC125613.1
LINC02224
CD300E
AC139722.1
AL356515.1
AC092440.1
LINC01070
SPHKAP
FAH
CPNE5
MFAP4
TAPT1-AS1
AC073359.2
AC005042.2
HBQ1
DNAH9
POLN
F10
STK32A-AS1
AC087672.3
SCGB1A1
GALNT16
LINC01169
AKNAD1
IL18
POLQ
LINC00640
AL031710.1
LINC00964
MEX3A
PRKAG3
AL445433.2
CD244
HBEGF
KATNAL2
TSPAN13
GLI2
AP000763.3
ENPEP
FAM186A
ST6GALNAC1
AC079362.1
CADM3
DHRS3
SPATA17
CCDC192
CCDC80
SULF2
FAM229B
MERTK
AL354754.1
RUBCNL
HDX
TIAM1
CP
LGALS3BP
CRLS1
NFKBIZ
MYO16-AS1
CDA
CD320
PKD1L1
PPP1R42
EGFL6
FLG-AS1
LINC02254
GCH1
IRGM
PHLPP1
DCBLD1
AC079447.1
MOXD1
AC037198.2
AL365259.1
BICDL1
LUCAT1
AC010880.1
OSBPL3
ATG10
RPL24
LINC01886
FABP5
MYO1C
AC000124.1
AC004231.3
AC004241.3
AC009005.1
AC009502.1
AC012100.2
AC016257.1
AC016730.1
AC022211.1
AC022634.2
AC027045.2
AC068112.1
AC074099.1
AC079834.2
AC082651.3
AC087241.3
AC090398.1
AC090617.2
AC092068.1
AC093817.1
AC097521.1
AC103843.1
AC104260.1
AC234772.2
AL121902.1
AL139124.1
AL352979.2
AL357172.1
AL358075.1
AL592494.1
AL646090.1
AP001178.1
ASIC4
CAPN6
CCDC78
CELA1
DDI1
EPOP
FZD10
HMGB3
HOXD10
HTR3E-AS1
KIF5A
KIR3DX1
LINC00221
LINC00570
LINC01490
LINC01648
LINC01701
LINC02125
LRRIQ4
MEP1A
MYT1
P2RY2
PHF24
SKA1
VPREB3
XCR1
AC013275.1
AC020741.1
AL121936.1
IL13
KRT72
RAD21-AS1
AC004540.1
RPP38
GPR65
CASC21
GLT1D1
TAGAP
AC079385.1
LINC01829
LINC02228
AP003400.1
HEG1
SH3PXD2B
TLR7
ABCA8
ABHD5
KDM4D
MAP3K9
CNTN4-AS2
RTL9
CFAP46
LINC02331
NUP62CL
AP1S3
PLEKHG6
ADGB
LINC02552
TRIM55
FGFR3
KLRC2
TMEM246-AS1
TMC7
NHSL1
AC079226.2
HRH2
AC137770.1
AC002463.1
LINC00903
PPP1R14C
KBTBD12
SIGLEC6
ITGB1BP1
ROR2
ATAD2
HEPACAM
NEURL1
AC109361.1
METTL24
LIPA
CPED1
DNAJC27-AS1
ACKR3
AC008127.1
GSTM2
MIR181A2HG
AC078923.1
AC079145.1
ADGRA3
MGC27382
FZD4
C1orf198
AC006299.1
SYT7
CD70
CACNA1A
ARFGEF3
AL137789.1
MT1X
AC104304.1
AC073352.1
FOXN4
PGM5-AS1
AC104232.1
AL138689.1
CKM
KCNJ2-AS1
LINC01531
TDRD15
AL023495.1
TSSK6
LINC01252
LINC00327
LINC01105
LINC01814
LINC01853
AC098848.1
AL445430.1
LINC01722
CCDC158
GATA2-AS1
PKIA-AS1
AC036214.1
PTPN22
AC110491.2
FCGR3A
C3orf67
FCRL6
PTPRN2
BDNF
AL353616.2
CPS1
MYL9
AC008883.1
GNG7
CD6
GJA4
IL10RA
ACPP
C12orf57
HEMGN
BPI
SNAP91
AC007495.2
AP002444.1
AP002856.2
DENND2A
PALD1
LIPC
PEX11A
BHLHE40-AS1
REN
CEMIP
DPH6
DAPP1
AC012370.2
NBEA
FAM222A-AS1
AL137024.1
SPARC
CACHD1
AC004828.1
AC090001.1
LINC02085
AC138356.3
C9orf116
AC025164.2
AC009902.2
APOL6
AC022796.1
ROR1
PARVA
ERI2
AC007163.2
MT-CO1
PAPLN
AC211433.1
CCDC171
TMEM135
PIK3C2B
CCDC36
AC024084.1
TIE1
AC022762.1
TTLL7
DTX1
KIAA0040
CPB2
LINC02105
LINC00484
SPAAR
GBP5
HHAT
GNG2
COX4I1
COL6A2
DCLK1
FAM46A
FAM171A1
LCP2
AL589990.1
AC005697.1
ELOVL4
BCL2L13
LINC02100
ZNF831
AC006369.1
ACOXL-AS1
ELOVL2
LNCSRLR
TREH
GRIK4
LINC01470
LYPLAL1-AS1
BMP2K
MMP27
TMEM74
WISP2
AC103740.1
VIPR1-AS1
EFCAB6
AC079329.1
CSTF3-AS1
BCAR3
AC027117.2
LINC01586
AC136424.2
RCAN3
AC024257.1
AC076966.1
CDKN3
RAG1
C19orf18
EXPH5
SLC9A3R2
RGS16
LILRB4
ZNF749
AC104663.1
AC008742.1
TDRD5
NIM1K
HSPA4L
CELSR1
SULT1C2
CFAP161
FAT3
AL034417.2
AC093158.1
RAPGEF3
AC093766.1
ARMC9
SLC2A5
GPR135
PDP2
AL445465.1
AC023421.2
AC097658.2
OR51E1
FGF18
LINC01550
FSIP1
AC007563.2
AL160275.1
MEIG1
AC007349.1
PDZD3
CASC18
LINC01952
AP005433.1
GDPD1
SESN1
DSG2
FFAR4
WNT5B
RIMS2
AL139807.1
GATA6
CCM2L
TIGAR
TANC1
TFPI
FCMR
RFX8
PRKCA-AS1
SLC9B1
CNR2
MATK
PLS1
SLC7A10
KIF15
VEPH1
LIMS1
AP001442.1
AC006581.2
EIF1B-AS1
UGDH
AC092674.1
AL357054.3
BX293535.1
CCR6
ILDR2
LINC00658
LINC02312
NXPE4
LINC00051
LINC02269
BHLHE41
AC105430.1
CPLX1
SPTBN1
ZBTB20-AS5
LINC02170
ISLR2
AP001150.1
AC068189.2
PDE4C
DIXDC1
JAKMIP2-AS1
SCPEP1
AL035427.1
CERS3-AS1
SLC25A39
AL138760.1
PKDCC
MT-CO2
PKIB
LAPTM5
AC004231.1
AC016687.3
AC023886.1
AC025465.1
CTLA4
PLEKHN1
NECTIN3-AS1
NRG4
C12orf60
SLAMF6
LINC00158
AC098613.1
ARL5C
LINC02267
FBN2
MAGI1-AS1
ATP2B2
AC016745.2
AL031727.2
AL035665.1
SLC10A5
SLITRK6
ZNF80
AC004257.1
AC007365.3
AC007608.1
AC009237.15
AC009509.1
AC010463.2
AC022144.1
AC023669.1
AC062032.1
AC068473.3
AC079467.1
AC099314.1
AC104423.1
AC106895.1
AC107373.1
AC110058.1
ACSM2A
AL138963.3
AL161729.4
AL353708.1
AL353746.1
AL365204.1
AL391811.1
AL583804.1
AL662791.5
APELA
AREG
C3orf80
DERL3
EREG
GC
GPR78
LINC00517
LINC01471
LINC01510
LINC01516
LINC01954
LINC02169
LINC02351
LINC02424
MT1F
PRSS38
STAC2
TBATA
Z73495.1
AC131956.2
AC092162.2
AP003059.2
GBP4
AL592103.1
LINC02320
AL121790.2
HEPHL1
DZIP1L
DNM3
EPB41L2
NPDC1
FBXL2
SNX10
TTC23L
SLC5A12
AP000688.1
RASGRP1
CEPT1
ACTN1
TEX26-AS1
SATB2
MICAL2
NCKAP1L
EPHB2
AL356124.1
DPEP2
ZC4H2
HK3
PRKAA2
TFCP2L1
ETV5
STIL
DOCK4
MEOX2-AS1
UNQ6494
CECR2
TRGC2
FAR2
LINC01798
AC006504.2
AL445259.1
FAM221B
IL1B
SCN1A
SH3GL3
PRTFDC1
MARCKSL1
FHL1
CLDN14
AC090415.2
TYRO3
DRAIC
C10orf10
BAALC-AS1
AC053527.1
PTGDR
ITGA2
NOV
LRRN2
MNDA
AC078785.1
TJP2
AC092431.1
AC004597.1
HS3ST1
GSDMB
AC007879.1
LINC00996
MCC
MAP7D3
FAM20C
NHLRC3
AC109462.2
VAV3-AS1
GPR1
AC027018.1
KY
RETREG1
AC108718.1
IRAK2
THRA1/BTR
TMEM169
AC010998.1
SLC26A5
PHEX
ADAMTS14
MMP2
AC021491.1
AL109920.1
PSMA8
AP003555.1
C3orf79
TRHR
WNT16
AL162632.1
AL162725.2
LINC00351
LINC00469
LINC01273
STARD6
ZNF827
FNBP1L
NME5
AC091940.1
PCDHB11
KCNMB1
PLAG1
COPG2
RNF175
PLCXD2
CCND3
DNAH5
LINC02015
AL354793.1
ETV1
RPS6KA6
KLHL6
PADI4
AC008074.1
FAM214A
OIT3
RNF182
UBE2U
AC111182.1
ARMC4
GACAT2
MYH13
SIDT1
KITLG
SPSB4
NDUFAF6
AC109471.3
TGFBR3
FLJ46284
ZDHHC14
CORO2A
GNAO1
CEP126
ATP5E
TBX15
AC012085.2
TSPOAP1-AS1
PVT1
SUSD4
PKN3
AP000282.1
EGLN3
SIPA1L2
SLCO4A1
AL590705.1
AP000787.1
MDFI
CELF4
MYL6
RPS6KA2
OR1L8
TBC1D4
TET1
FAT1
FUT9
OASL
AC096711.3
AC104211.1
SERPINF1
LINC01277
ANGPTL1
THRB-AS1
SRRM4
CACNA2D2
FAM20A
BACH1
CNTD1
TMEM176A
NEGR1
ZNF683
AC011503.2
AL592402.1
IL6
LINC02294
MMP12
TAS2R13
AC026904.1
AL358335.2
LINC01754
PCOTH
SHANK2-AS1
NOL3
HECW2
ZNF704
AL139353.2
ASXL3
SAMD11
TCF4-AS1
AVIL
IL15
AP003063.2
CYP27C1
KCNK1
VWA1
PHKA1
AC011092.2
CAV3
FSTL1
AC021086.1
FAM129A
AGL
PARVG
AKR1C3
ALX1
ESAM
NUDT6
EFHC2
LINC02540
PHF21B
GAPDH
AC106869.1
AC006116.8
RBMS3
HIST1H2AC
LINC00467
AL021026.1
AC084816.1
CCDC18
SYNPO
CLTCL1
ANGPT2
FGD4
EPB41L3
AL359644.1
AC087477.2
HECW1
SLC1A1
ATP6AP1L
AP002518.1
NDRG4
CLDN18
KIF18A
TNFRSF25
LZTS1
HACL1
RIMKLA
TEC
BHMT
RARRES1
AC090709.1
LINC02492
BRINP1
LINC02431
AL353811.1
CHST4
DLGAP1-AS4
DLGAP3
PTPN14
PTPRM
ZNF503-AS1
BACE2
DUSP10
PEBP4
DGKH
SYT17
PPFIA2-AS1
PDGFRB
AC112484.2
AICDA
ELAVL4
HCG9
TMPRSS4-AS1
KIAA1456
ENO4
THBS4
OXCT1
PIK3R6
PRRX1
GOLGA7B
E2F2
AC093305.1
CBFA2T3
ST7-AS2
LINC02413
AC015971.1
AP003063.1
C2orf83
SERPINI2
GATA3
CRISPLD2
FAM89A
AP000844.2
LINC02226
AP003064.2
AC093010.2
FBXO15
AF130351.1
AL845331.2
NOVA1
MT-CYB
CAPS2
RHOC
MT-ATP6
AC006262.2
AC008456.1
AC025437.1
AC090802.1
AC096708.3
AC114284.1
ADGRA1
ADGRF1
AL158064.2
AL162457.2
AL357793.2
AL669970.1
LINC01241
LINC01307
LINC01501
LINC02523
LINC02528
LPAR3
PNMA6A
PTCHD3
RAB17
RRAD
TLCD1
TMEM63C
TROAP
Z94057.1
AC005291.2
AC007221.1
AC021739.4
AC022148.1
AC100827.4
AC134682.1
AL158042.1
AL160408.3
AL365214.3
AL606468.1
AL645940.1
AP001350.1
CASC9
FOXD2
HSPB9
ITPKA
JRKL-AS1
KIR3DL2
LINC02056
LINC02471
NUDT11
SIGLEC14
SSMEM1
TEX45
TXNDC12-AS1
WDR78
RBP2
TIPIN
ITGB2-AS1
MPP6
AC018462.1
MYO3B
DSP
AC099753.1
AP001610.1
AC011511.2
FKBP5
GPATCH11
AP000695.2
AK8
ACE
EBF1
AC025917.1
AP002991.1
GCNT2
AC005609.5
CHRM3-AS2
SLC35G2
AC090092.1
HSPA1A
AL158850.1
AFAP1L1
SLC28A3
AC013451.1
SYBU
KCNK15-AS1
ZC3H12B
GFRAL
CXADR
IQCH
SGSM1
SLC28A2
PLA2G6
AC025423.1
HOMER1
ASTN2
AC004585.1
AC080128.2
AC090136.3
AC108676.1
AC125807.2
GSDMA
LINC00520
LINC01293
LINC01916
SMCO2
AC005736.2
GAS2L2
AC130650.1
TRPM2
ECM1
AL359643.3
LINC00519
HOXB-AS1
AC079210.1
SH3BP5
LINC00894
AC069437.1
SPATA6L
HAVCR2
AL035701.1
MGC32805
DNER
REEP1
AC011466.3
POU2F3
LINC00407
NLGN4Y-AS1
AP001043.1
LINC02446
BTNL3
AC008629.1
TESK2
MEIS2
ADCY8
EXO1
RAMP1
AC091114.1
IGLV10-54
RNF17
AC107068.2
LINC01942
GPR160
ECM2
PRB2
AC107029.1
CYFIP2
SPSB1
YWHAG
KIAA1549
AC119396.1
LINC00702
AC105277.1
GPR137B
IL34
ARHGAP29
AC005534.1
AC018680.1
AC078962.2
AC087855.1
AC099508.2
ADAMTSL2
CYP2C8
HTR1F
SLC22A24
TNFRSF13C
AC097662.1
VWDE
FRMD6-AS2
TRABD2A
CEACAM21
MTCP1
AC013640.1
AC092567.1
AC073571.1
HOXA-AS3
AL359706.1
LINC00243
TMPRSS11A
SLC9A7
AF250324.1
KCNAB2
MOCS1
MCAM
FOS
PAWR
CRYBG1
NUF2
MCOLN3
CPEB4
LRRC8B
GDPD5
ETS1
AC097467.3
MORC4
OSMR-AS1
LINC01006
MYL12A
DMXL2
AL445472.1
SORCS3
SULT1B1
FGGY
AC016910.1
TPTE2
IFI6
ANK2
ICOS
AC009495.3
PHYHIPL
AL357992.1
BTC
RDH10
NPAS2
FAM110B
AC022568.1
BTG1
AC016885.2
AC009563.1
FLNB
ADCY4
AC010636.2
STRBP
CDKN1A
ADAMTS2
CYTIP
CCDC146
AJAP1
LDLR
PRSS12
MYEF2
WWC1
ALDH18A1
SOX4
P2RX5
NFE4
PSG4
FAM124B
TIMD4
CYP19A1
AC104461.1
PRICKLE2-AS3
TMED3
LINC02389
ITGB5-AS1
PDCD1LG2
CYP39A1
PRDX6
NMD3
CPB2-AS1
LINC02542
SOCS1
CA2
ATP2C2-AS1
SMAD1-AS2
TBX21
LDB3
AL357793.1
CCDC168
LINC02126
SLC45A2
ENAM
GEN1
VAV1
GCLM
SLC22A10
PDE9A
AC005089.1
RPL3
AC133065.1
MEIS1
BCAS1
AC024941.2
CHRNA7
FASLG
NCF4
ERP27
LINC02516
GRIK1
KIF9-AS1
LINC01762
SLAMF1
AL139353.1
DNAH7
AC027698.1
SEC24B-AS1
ARHGAP44
AC073316.1
JAG2
IRAK1BP1
AC010148.1
AC066613.2
RAB44
AC009387.1
AC009646.2
AC022021.1
AC026992.1
AC034231.1
AC083800.1
FAM30A
HHIPL2
LINC00670
LINC02497
PLCZ1
XDH
HLA-DQB1
MB21D2
RCL1
APLF
NMNAT3
AC074031.1
ARL9
SLC51B
B3GAT1
ASCL2
GPR179
SHISA3
BNIP3
KIAA0825
EOMES
AC139713.2
AC068987.4
TANC2
HAS1
AC091053.2
HTR2A
AC008496.2
AC109492.1
SPATA16
SLC26A8
MRAP2
CTXND1
LINC00393
AL354696.2
RNF24
BOK
TMEM100
AC109811.1
KLHL3
GPX1
LY6K
NFIA-AS2
AC063977.6
CLEC17A
FAM84A
HPD
PPP4R4
ABCG8
AC004906.1
AC005014.2
AC008662.1
AC023866.2
AC046168.2
AC090952.2
AC092892.1
AC108156.1
AC113382.1
AC138356.1
AC138965.1
AL031275.1
AL118523.1
AL136088.1
AL355596.1
AL662907.3
AP002840.2
ASB15
ASZ1
C1orf87
CCDC144A
DPEP3
ERICH3
FAM166B
FOXD2-AS1
ICAM4
IGLL5
KLRG2
KRT23
KRT5
LINC01581
LINC01589
LINC01612
LINC01707
LINC02092
LRG1
LUARIS
MYH4
NLRP6
OVCH2
PROB1
REM2
RTN4R
STMN2
TMEM196
TULP2
USP26
AC009139.2
C11orf96
APOC1
BLOC1S5-TXNDC5
ZNF436-AS1
TET3
CDC14B
LCK
CYP51A1-AS1
PTHLH
LGI2
AC111194.2
C9orf153
AC099687.1
AMZ1
CDK6
DCUN1D4
RFLNA
EZR
RPSA
AC078980.1
INHBA-AS1
NAP1L3
AC104116.1
ATP11A-AS1
C1orf115
CENPU
AC023509.2
KIAA1324L
AC087071.2
SNCG
CAB39L
CD40LG
RAPGEF4-AS1
AC099542.1
AP005059.1
LINC00571
DTWD2
SH2D3C
AC096576.2
HLCS
ACYP2
KANK3
S1PR3
MIR3142HG
NIPAL2
CERNA1
PRDM1
PELI1
ARNT2
FBLN2
PRICKLE2-AS1
GAP43
DGAT2L6
PRKG1-AS1
PRR5
KTN1-AS1
AC011389.1
AC025822.2
LIPN
MATN3
CMYA5
AC090673.1
ARHGAP6
PCAT19
AL136979.1
LDHB
GRM7-AS3
BIN2
KCNH7
NT5DC1
NIPSNAP3B
ANKRD31
CENPK
AL132671.2
GLIS1
PLAC9
MAML3
HES4
AP001528.1
STEAP2
FLVCR2
LINC00402
STOX1
ADTRP
RPGRIP1L
SH2B2
LINC01094
DISC1
TRIM58
ADAMTS10
AC096586.1
IL20RA
AL352984.1
AC116353.4
DGAT1
EXTL3
ARHGAP26-AS1
LINC02102
NAV2-AS3
LOXHD1
IMPG1
AC009063.2
OR3A2
ISLR
AC078850.2
URB1-AS1
CPEB1
WDR64
AC068413.1
CCNB2
C11orf65
AC026726.1
GML
PTGDS
SNHG27
SPTBN5
AC037450.1
SMC2-AS1
AC112196.1
DUSP16
BCL2L14
ARNTL2-AS1
AC113346.2
AQP3
VSIG1
CYP4A22-AS1
NR1H3
CDKL4
NDRG1
HORMAD2-AS1
AC114296.1
TMEM117
UBC
CYTH4
HLA-DRB5
AC022903.1
AC117944.1
ACRV1
AL136298.1
C1QTNF12
CCDC129
CFAP126
FLG2
HOXD9
LINC01158
METTL7B
SLC6A11
SUN3
RIPOR3
CDKN2B-AS1
RAD23B
SLC29A4
Z83844.2
AC091906.1
HS3ST5
AC006159.1
TFDP2
AK9
CETP
S1PR5
AC005355.1
WDR62
AC099805.1
MAP3K21
KIRREL1
NKAPL
JUN
CNTNAP3B
CAVIN3
RPS25
CCDC7
AC106894.1
ABCA4
PLAT
AC114763.1
FAM71F2
AC097376.2
HSPB1
SAMD13
AC089983.1
C16orf95
ITPKB
AC139769.2
ATP2A3
TMC8
SRD5A3-AS1
EID1
TNIP1
OSBPL10
NR4A1
AP003059.1
AL390774.2
SPON1-AS1
VSTM1
PLEKHM3
HIF1A-AS2
RTN4RL1
PPIC
ZNF385D-AS1
AC068025.1
MLC1
MPIG6B
SPTA1
ITGB5
CYTOR
TUBB1
AL157895.1
CORO2B
FBXL13
OVCH1
AL591368.1
TDRD12
C4orf47
AP002498.1
ANKDD1B
ENTPD3
SMIM25
C1orf185
AP001604.1
GPNMB
C8orf46
LANCL2
EPHB4
AC097641.1
AC139100.1
CEBPB-AS1
CYBA
TNFRSF19
TBC1D30
ARSB
AC125618.1
LGR6
RGS11
AC018816.1
RSAD2
C1QB
AC008534.1
SLC22A23
MAL2
AC011346.1
AC131009.2
AKAIN1
AKR1C4
AL157702.2
AL357054.4
AP001025.3
ASB4
CDC20
DEPDC1
FBXO40
SEC14L6
AC008703.1
AC023632.5
AC034234.1
AC092384.2
AC104823.1
AC243571.2
AC245052.4
ACP4
AL121885.2
AL139081.1
AL162231.1
AL162457.1
AL441883.1
AL591178.1
AP001330.5
AP003716.1
CPA5
DAND5
DCX
DES
ENTPD2
ERICH5
FAM26D
HMSD
KLRC4
LINC00836
LINC00977
LINC02177
LINC02408
LINC02493
LUADT1
NRTN
OLIG1
SFTA1P
SLC17A8
FLJ27354
LINC00649
CCDC150
WARS2-IT1
ADCY10
AL158071.3
GLDC
AC011824.2
PCP4L1
PHKA1-AS1
USP27X
AL450263.1
PRSS3
SERPINC1
PLSCR1
TINAGL1
LINC02063
AC011498.1
AL359317.1
NYAP2
UCP1
AC007610.1
NES
ACSM1
ALDH1L1-AS2
